MESH PARTITION dimension 3 Elemtype Linear Nnode  2
coordinates
    1 0.401393E+00 0.178965E+01 0.156878E+01
    2 0.667207E+00 0.196336E+01 0.164367E+01
    3 0.508942E+00 0.184700E+01 0.190279E+01
end coordinates
elements
       1       1       2
       2       1       3
       3       2       1
       4       2       3
       5       3       1
       6       3       2
end elements
