GiD Post Results File 1.0
 
Result NELEM ANALYSIS 0 Scalar OnNodes
ComponentNames NELEM
Values
       1    4789
       2    4789
       3    4789
End Values
Result NBINT ANALYSIS 0 Scalar OnNodes
ComponentNames NBINT
Values
       1     925
       2     877
       3     885
End Values
Result NBBOU ANALYSIS 0 Scalar OnNodes
ComponentNames NBBOU
Values
       1      95
       2     108
       3      94
End Values
Result NSUBD ANALYSIS 0 Scalar OnNodes
ComponentNames NSUBD
Values
       1       2
       2       2
       3       2
End Values
