--------------------
GENERAL
--------------------
model = 0   ! 0 = Limited length   1=RNG    2= REALIZABLE
nstep = 800
miite    = 1        ! global iteration
--------------------
PHYSICAL
--------------------
fcori = 1.13e-4  ! 2*Omega*sin(latitud)
vegeo = 10.0d0
ustar = 0.65d0 ! fix ustar, valid for initial condition
l_max = 36.0d0  ! if zero, calculates lmax in terms of fcorio
rough = 0.30d0 
--------------------
MESH
--------------------
ztop = 3000.0d0
hele1= 0.1  ! generally double of dwall, if Dirichlet at least rough /50
nelem = 150 ! # num of vertical elements
--------------------
BOUNDARY
--------------------
bouco = 2   ! 0: Dirichlet nonsip veloc, 1: fix ustar, 2: wall law
--------------------
NUMERICAL
--------------------
dwall = 0.1 ! wall distance 
toler= 1.0e-4 ! converg tolerance
mitve = 1 ! max # iterations for velocity
mittu = 3  ! max # iterations for turbulence
--------------------
THERMAL
--------------------
thmod  =  1      ! Thermal model,  0 = No thermal coupl  1=Apsley-Castro, 2= Alinot-Masson, 3= Crespo
heatfl =   20.0  ! heat flux over the ground,   >0 stable, <0 unstable.    if =0.0 = no thermal model 
height  = 200.0  ! SBL height: heat flux decreases linearly up to z_sbl if Apsl Castro Model
molen  =  100.0  ! M-O length, L>0 stable, L<0 unstable





