$------------------------------------------------------------
DIMENSIONS
  NODAL_POINTS=               3433
  ELEMENTS=                   6664
  SPACE_DIMENSIONS=               2
  NODES=                          3
  BOUNDARIES=              200
  SKEW_SYSTEMS=            0
  SLAVES=                  0
END_DIMENSIONS
$------------------------------------------------------------
STRATEGY
  INTEGRATION_RULE:          OPEN
  DOMAIN_INTEGRATION_POINTS: 3
END_STRATEGY
$-------------------------------------------------------------
GEOMETRY, GID
   GROUPS = 4
   INCLUDE  chemistryStagg.geo.dat
END_GEOMETRY
$-------------------------------------------------------------
SETS
END_SETS
$-------------------------------------------------------------
BOUNDARY_CONDITIONS, EXTRAPOLATE
  INCLUDE chemistryStagg.fix.bou
END_BOUNDARY_CONDITIONS
$-------------------------------------------------------------
