BOUNDARIES
1 11 118 12
2 10 104 11
3 11 86 118
4 11 104 86
5 12 100 13
6 12 118 100
7 70 112 82
8 70 130 112
9 70 82 102
10 70 126 130
11 70 87 126
12 70 102 87
13 24 107 25
14 25 107 88
15 25 117 26
16 25 88 117
17 18 116 19
18 18 87 116
19 17 106 18
20 18 106 87
21 72 95 84
22 84 95 135
23 76 83 95
24 76 95 120
25 83 135 95
26 72 120 95
27 27 111 28
28 28 141 29
29 28 111 141
30 13 108 14
31 14 142 15
32 14 108 142
33 77 84 96
34 84 115 96
35 73 96 93
36 93 96 115
37 133 96 73
38 77 96 90
39 90 96 133
40 26 99 27
41 27 99 92
42 27 92 111
43 33 101 34
44 34 101 90
45 33 119 101
46 77 101 119
47 77 90 101
48 77 114 84
49 72 84 114
50 84 135 115
51 19 116 98
52 75 116 87
53 75 98 116
54 24 137 107
55 88 107 127
56 80 107 137
57 80 127 107
58 26 117 99
59 76 117 88
60 76 99 117
61 1 29 123
62 29 141 123
63 9 139 10
64 10 139 104
65 16 136 17
66 17 136 106
67 19 98 20
68 13 89 108
69 13 100 89
70 1 123 30
71 30 138 31
72 30 123 138
73 35 143 36
74 34 109 35
75 35 109 143
76 76 88 113
77 76 92 99
78 76 113 83
79 76 120 92
80 89 112 130
81 74 112 89
82 89 130 108
83 74 89 100
84 3 124 9
85 9 124 139
86 2 22 122
87 2 122 23
88 4 15 121
89 15 142 121
90 75 94 97
91 75 97 91
92 75 102 94
93 75 87 102
94 75 91 98
95 72 128 132
96 81 132 128
97 72 132 120
98 92 120 132
99 92 132 111
100 81 111 132
101 71 97 83
102 71 83 113
103 131 97 71
104 71 113 127
105 71 127 131
106 23 137 24
107 85 105 128
108 81 128 105
109 72 114 128
110 85 128 114
111 3 36 124
112 36 143 124
113 21 140 22
114 22 140 122
115 31 105 32
116 31 138 105
117 88 127 113
118 80 137 122
119 80 140 110
120 80 110 131
121 80 122 140
122 80 131 127
123 20 110 21
124 21 110 140
125 73 93 103
126 93 129 103
127 73 103 86
128 74 103 129
129 74 86 103
130 93 69 129
131 69 93 115
132 129 69 82
133 69 94 82
134 69 135 134
135 69 115 135
136 69 134 94
137 20 91 110
138 20 98 91
139 34 90 109
140 78 143 109
141 78 109 133
142 78 139 124
143 78 104 139
144 78 124 143
145 78 133 125
146 78 125 104
147 90 133 109
148 32 105 85
149 32 119 33
150 32 85 119
151 81 105 138
152 73 86 125
153 73 125 133
154 83 97 134
155 83 134 135
156 4 121 16
157 16 121 136
158 82 112 129
159 74 129 112
160 94 134 97
161 91 97 131
162 23 122 137
163 74 118 86
164 86 104 125
165 82 94 102
166 77 119 85
167 77 85 114
168 79 126 106
169 87 106 126
170 79 106 136
171 79 130 126
172 79 142 108
173 79 108 130
174 79 121 142
175 79 136 121
176 81 138 123
177 91 131 110
178 74 100 118
179 81 123 141
180 81 141 111
181 145 144 31
182 146 31 144
183 145 38 144
184 146 144 38
185 147 40 153
186 39 40 147
187 41 153 40
188 34 152 35
189 148 35 152
190 34 153 152
191 152 153 151
192 148 152 151
193 33 32 147
194 147 32 146
195 147 153 33
196 147 146 39
197 6 66 154
198 3 155 66
199 155 154 66
200 1 150 30
201 30 145 31
202 145 30 150
203 5 149 65
204 5 37 149
205 6 154 43
206 36 35 148
207 1 65 150
208 3 36 155
209 36 148 155
210 32 31 146
211 65 149 150
212 34 33 153
213 38 145 37
214 145 149 37
215 150 149 145
216 42 43 148
217 155 43 154
218 43 155 148
219 38 39 146
220 41 42 151
221 148 151 42
222 41 151 153
223 12 11 159
224 11 10 158
225 159 11 158
226 13 12 165
227 159 165 12
228 6 44 161
229 157 161 44
230 45 157 44
231 13 164 14
232 14 160 15
233 160 14 164
234 7 67 166
235 4 167 67
236 167 166 67
237 9 157 10
238 158 10 156
239 157 156 10
240 6 161 66
241 66 161 162
242 3 66 162
243 13 165 164
244 7 166 50
245 167 50 166
246 50 167 160
247 50 160 49
248 3 162 9
249 157 9 162
250 46 47 159
251 159 158 46
252 159 47 165
253 4 15 167
254 15 160 167
255 45 46 158
256 162 161 157
257 48 165 47
258 48 163 165
259 48 49 163
260 160 164 163
261 164 165 163
262 158 156 45
263 160 163 49
264 157 45 156
265 18 17 170
266 19 18 171
267 171 18 170
268 56 57 172
269 8 178 57
270 57 179 172
271 179 57 178
272 4 67 174
273 67 173 174
274 7 173 67
275 171 54 177
276 53 54 171
277 55 177 54
278 16 169 17
279 169 168 17
280 170 17 168
281 20 19 177
282 171 177 19
283 2 22 179
284 2 179 68
285 22 21 172
286 22 172 179
287 20 176 21
288 172 21 176
289 169 52 168
290 52 169 51
291 170 168 52
292 52 53 170
293 8 68 178
294 179 178 68
295 20 177 176
296 4 174 16
297 169 16 174
298 174 173 169
299 172 175 56
300 55 56 175
301 7 51 173
302 172 176 175
303 176 177 175
304 55 175 177
305 169 173 51
306 171 170 53
307 5 190 64
308 63 64 184
309 191 64 190
310 64 191 184
311 26 25 183
312 25 24 182
313 183 25 182
314 62 189 61
315 62 63 187
316 62 187 189
317 27 188 28
318 29 28 184
319 184 28 188
320 27 26 189
321 27 189 188
322 8 58 185
323 181 185 58
324 59 181 58
325 60 61 183
326 59 60 182
327 183 182 60
328 1 29 191
329 29 184 191
330 183 189 26
331 5 65 190
332 1 191 65
333 2 68 186
334 2 186 23
335 23 181 24
336 181 180 24
337 182 24 180
338 183 61 189
339 184 187 63
340 191 190 65
341 8 185 68
342 68 185 186
343 184 188 187
344 188 189 187
345 186 185 181
346 181 59 180
347 182 180 59
348 181 23 186
349 64 247 5
350 266 64 63
351 266 247 64
352 249 229 202
353 229 249 210
354 210 249 193
355 249 253 193
356 253 249 202
357 243 218 195
358 218 207 195
359 206 218 199
360 258 218 206
361 218 243 199
362 218 258 207
363 241 223 40
364 223 41 40
365 241 40 39
366 250 236 211
367 211 236 199
368 230 250 211
369 230 211 53
370 240 211 199
371 211 240 53
372 244 44 6
373 244 259 44
374 259 45 44
375 252 235 197
376 235 212 197
377 235 252 205
378 235 205 193
379 235 253 212
380 253 235 193
381 236 206 199
382 206 236 194
383 236 250 194
384 224 62 61
385 232 63 62
386 213 232 62
387 224 213 62
388 57 246 8
389 264 246 57
390 264 57 56
391 237 251 195
392 207 237 195
393 251 237 208
394 208 237 200
395 237 207 200
396 246 58 8
397 246 261 58
398 261 59 58
399 242 61 60
400 208 242 60
401 228 208 60
402 228 60 59
403 238 258 192
404 216 238 192
405 192 205 252
406 192 252 216
407 217 205 192
408 258 257 192
409 257 217 192
410 227 262 201
411 262 247 201
412 248 227 201
413 247 266 201
414 232 256 201
415 266 232 201
416 256 248 201
417 240 222 54
418 222 55 54
419 240 54 53
420 247 37 5
421 43 244 6
422 50 245 7
423 263 245 50
424 263 50 49
425 223 241 197
426 212 223 197
427 226 252 197
428 241 209 197
429 209 226 197
430 238 219 207
431 219 238 216
432 258 238 207
433 260 245 203
434 245 263 203
435 245 51 7
436 245 260 51
437 223 212 41
438 242 224 61
439 239 47 46
440 229 46 45
441 229 210 46
442 210 239 46
443 221 48 47
444 239 221 47
445 232 266 63
446 260 230 52
447 230 53 52
448 260 52 51
449 262 227 38
450 247 262 37
451 262 38 37
452 251 255 195
453 255 243 195
454 252 226 216
455 221 214 48
456 221 239 198
457 214 221 198
458 242 208 200
459 228 251 208
460 233 49 48
461 214 233 48
462 209 241 39
463 224 242 200
464 259 244 202
465 265 244 43
466 244 265 202
467 251 228 204
468 255 251 204
469 220 257 206
470 220 206 194
471 257 258 206
472 250 230 203
473 230 260 203
474 259 229 45
475 229 259 202
476 219 196 256
477 219 216 196
478 248 256 196
479 226 209 196
480 216 226 196
481 209 248 196
482 261 246 204
483 246 264 204
484 263 233 203
485 233 254 203
486 254 250 203
487 234 264 56
488 234 56 55
489 261 228 59
490 227 39 38
491 227 209 39
492 227 248 209
493 228 261 204
494 265 43 42
495 219 256 213
496 219 213 200
497 256 232 213
498 213 224 200
499 205 225 193
500 217 225 205
501 243 255 215
502 255 234 215
503 234 255 204
504 222 240 199
505 215 222 199
506 222 215 55
507 212 231 41
508 253 231 212
509 231 42 41
510 231 265 42
511 233 263 49
512 254 233 214
513 210 225 198
514 225 217 198
515 225 210 193
516 250 254 194
517 257 220 217
518 220 214 198
519 217 220 198
520 220 194 254
521 220 254 214
522 243 215 199
523 239 210 198
524 207 219 200
525 215 234 55
526 264 234 204
527 231 253 202
528 265 231 202
END_BOUNDARIES
