COORDINATES
1 -4 -4 4
2 4 -4 4
3 -4 4 4
4 4 4 4
5 -4 -4 6
6 -4 4 6
7 4 4 6
8 4 -4 6
9 -3.000000000002773 4 4
10 -2.000000000005548 4 4
11 -1.000000000008323 4 4
12 -1.10111919582323e-11 4 4
13 0.9999999999916769 4 4
14 1.999999999994452 4 4
15 2.999999999997225 4 4
16 4 3.000000000002773 4
17 4 2.000000000005548 4
18 4 1.000000000008323 4
19 4 1.10111919582323e-11 4
20 4 -0.9999999999916769 4
21 4 -1.999999999994452 4
22 4 -2.999999999997225 4
23 3.000000000002773 -4 4
24 2.000000000005548 -4 4
25 1.000000000008323 -4 4
26 1.10111919582323e-11 -4 4
27 -0.9999999999916769 -4 4
28 -1.999999999994452 -4 4
29 -2.999999999997225 -4 4
30 -4 -3.000000000002773 4
31 -4 -2.000000000005548 4
32 -4 -1.000000000008323 4
33 -4 -1.10111919582323e-11 4
34 -4 0.9999999999916769 4
35 -4 1.999999999994452 4
36 -4 2.999999999997225 4
37 -4 -3.000000000002773 6
38 -4 -2.000000000005548 6
39 -4 -1.000000000008323 6
40 -4 -1.10111919582323e-11 6
41 -4 0.9999999999916769 6
42 -4 1.999999999994452 6
43 -4 2.999999999997225 6
44 -3.000000000002773 4 6
45 -2.000000000005548 4 6
46 -1.000000000008323 4 6
47 -1.10111919582323e-11 4 6
48 0.9999999999916769 4 6
49 1.999999999994452 4 6
50 2.999999999997225 4 6
51 4 3.000000000002773 6
52 4 2.000000000005548 6
53 4 1.000000000008323 6
54 4 1.10111919582323e-11 6
55 4 -0.9999999999916769 6
56 4 -1.999999999994452 6
57 4 -2.999999999997225 6
58 3.000000000002773 -4 6
59 2.000000000005548 -4 6
60 1.000000000008323 -4 6
61 1.10111919582323e-11 -4 6
62 -0.9999999999916769 -4 6
63 -1.999999999994452 -4 6
64 -2.999999999997225 -4 6
65 -4 -4 5
66 -4 4 5
67 4 4 5
68 4 -4 5
69 0.04990507778417223 0.4272849703720114 4
70 1.669029307972219 1.624241747892903 4
71 1.518838338803939 -1.604629868591771 4
72 -1.42820471716889 -1.504643832933836 4
73 -1.538988190751347 1.708989156594468 4
74 -0.0246990077850604 2.35911342178855 4
75 2.31925806384933 0.04828203210689173 4
76 0.03216213114815289 -2.296160196235732 4
77 -2.288446439384294 -0.04839416466768563 4
78 -2.65545608130694 2.639230418241106 4
79 2.639230418241106 2.655456081306941 4
80 2.65545608130694 -2.639230418241106 4
81 -2.639230418241106 -2.655456081306941 4
82 0.8899365837290288 1.069248137456904 4
83 0.5476190476184269 -1.119047619047923 4
84 -1.195432499189426 -0.5155516989093921 4
85 -2.770631329454582 -1.113876319756829 4
86 -1.113876319756828 2.770631329454582 4
87 2.740767316432505 1.115113543282969 4
88 1.113876319756828 -2.770631329454582 4
89 1.072699649687715 2.785020927551056 4
90 -2.756896439076866 0.9837075442740021 4
91 2.761295569316998 -0.9839715492884678 4
92 -1.061737613292603 -2.789165579846727 4
93 -0.7924782545184812 1.071247540592168 4
94 1.204286840993192 0.2034339374711299 4
95 -0.4534840484873851 -1.322661808085814 4
96 -1.611211115751941 0.7153353548098195 4
97 1.594548448478789 -0.7396217103313578 4
98 3.283307721287922 -0.2822616281696663 4
99 -0.2824379740626589 -3.203340747019704 4
100 0.2928204927005613 3.245459222958826 4
101 -3.276265570346888 0.2821864006546141 4
102 1.76953387237394 0.7706429059012291 4
103 -0.7122288706352803 1.881995773715033 4
104 -1.877688851795921 3.205017762596289 4
105 -3.205017762596289 -1.877688851795921 4
106 3.20004042709261 1.877895055716944 4
107 1.877688851795921 -3.205017762596289 4
108 1.858846027555159 3.190299467437654 4
109 -3.210823283133335 1.82157748757567 4
110 3.21155647150669 -1.821621488411414 4
111 -1.894020310855883 -3.150420621323649 4
112 0.8232062055608277 1.947425123895549 4
113 0.8993274939920677 -1.97830019271874 4
114 -1.963868892956521 -0.8760151526765376 4
115 -0.7895922490419274 0.2191915048585512 4
116 3.318461453656631 0.4858155217569535 4
117 0.4691112301981744 -3.306116708429522 4
118 -0.4451821878742283 3.304891004685073 4
119 -3.318045493515855 -0.4857608641429242 4
120 -0.9213634401462448 -1.983851767623793 4
121 3.223079004328387 3.223079004329624 4
122 3.223079004329624 -3.223079004328387 4
123 -3.223079004328387 -3.223079004329624 4
124 -3.223079004329623 3.223079004328386 4
125 -1.917722868909166 2.416302837584656 4
126 2.401342598155056 1.93506226582691 4
127 1.744631997765081 -2.325909182106554 4
128 -2.294099773575704 -1.738380856567476 4
129 0.0389402890225345 1.459385827970036 4
130 1.757645521036837 2.402604900934793 4
131 2.323582579639697 -1.721005307665208 4
132 -1.706442712213405 -2.30365312326707 4
133 -2.37117132175428 1.746333813799344 4
134 0.599522992268124 -0.3660618128215981 4
135 -0.2069102798413358 -0.4461410772723607 4
136 3.41246996993242 2.551286028272366 4
137 2.551244787488161 -3.413465437033156 4
138 -3.413465437033156 -2.551244787488161 4
139 -2.551244787488161 3.413465437033156 4
140 3.418018311428651 -2.536786182194517 4
141 -2.55126594668341 -3.405791141392042 4
142 2.544231090023266 3.413766910614844 4
143 -3.41787167375398 2.536777382027368 4
144 -4 -2.000000000005548 5
145 -4 -2.875000000003121 5
146 -4 -1.333333333340717 5
147 -4 -0.4548006381141776 4.943165784832452
148 -4 2.355722071964704 4.904083692365835
149 -4 -3.468750000001473 5.5
150 -4 -3.468750000001473 4.5
151 -4 1.483966623486705 5.253650132275132
152 -4 1.506087880284247 4.574935714285714
153 -4 0.6478934093740154 4.967393090199042
154 -4 3.624999999998959 5.375
155 -4 3.330120345326352 4.879847282060973
156 -2.000000000005548 4 5
157 -2.875000000003121 4 5
158 -1.333333333340717 4 5
159 -0.4548006381141776 4 4.943165784832452
160 2.355722071964704 4 4.904083692365835
161 -3.468750000001473 4 5.5
162 -3.468750000001473 4 4.5
163 1.483966623486705 4 5.253650132275132
164 1.506087880284247 4 4.574935714285714
165 0.6478934093740154 4 4.967393090199042
166 3.624999999998959 4 5.375
167 3.330120345326352 4 4.879847282060973
168 4 2.000000000005548 5
169 4 2.875000000003121 5
170 4 1.333333333340717 5
171 4 0.4548006381141776 4.943165784832452
172 4 -2.355722071964704 4.904083692365835
173 4 3.468750000001473 5.5
174 4 3.468750000001473 4.5
175 4 -1.483966623486705 5.253650132275132
176 4 -1.506087880284247 4.574935714285714
177 4 -0.6478934093740154 4.967393090199042
178 4 -3.624999999998959 5.375
179 4 -3.330120345326352 4.879847282060973
180 2.000000000005548 -4 5
181 2.875000000003121 -4 5
182 1.333333333340717 -4 5
183 0.4548006381141776 -4 4.943165784832452
184 -2.355722071964704 -4 4.904083692365835
185 3.468750000001473 -4 5.5
186 3.468750000001473 -4 4.5
187 -1.483966623486705 -4 5.253650132275132
188 -1.506087880284247 -4 4.574935714285714
189 -0.6478934093740154 -4 4.967393090199042
190 -3.624999999998959 -4 5.375
191 -3.330120345326352 -4 4.879847282060973
192 -0.4272849703720114 0.04990507778417223 6
193 -1.624241747892903 1.669029307972218 6
194 1.604629868591771 1.518838338803939 6
195 1.504643832933836 -1.42820471716889 6
196 -1.708989156594467 -1.538988190751347 6
197 -2.35911342178855 -0.0246990077850604 6
198 -0.04828203210689175 2.31925806384933 6
199 2.296160196235732 0.03216213114815289 6
200 0.04839416466768564 -2.288446439384294 6
201 -2.639230418241106 -2.655456081306941 6
202 -2.655456081306941 2.639230418241106 6
203 2.639230418241106 2.65545608130694 6
204 2.655456081306941 -2.639230418241106 6
205 -1.069248137456903 0.8899365837290287 6
206 1.119047619047923 0.5476190476184269 6
207 0.5155516989093921 -1.195432499189425 6
208 1.113876319756829 -2.770631329454582 6
209 -2.770631329454582 -1.113876319756828 6
210 -1.115113543282969 2.740767316432505 6
211 2.770631329454582 1.113876319756828 6
212 -2.785020927551056 1.072699649687715 6
213 -0.9837075442740021 -2.756896439076866 6
214 0.9839715492884678 2.761295569316998 6
215 2.789165579846727 -1.061737613292603 6
216 -1.071247540592168 -0.7924782545184814 6
217 -0.2034339374711299 1.204286840993192 6
218 1.322661808085814 -0.4534840484873851 6
219 -0.7153353548098195 -1.611211115751941 6
220 0.7396217103313578 1.594548448478789 6
221 0.2822616281696663 3.283307721287922 6
222 3.203340747019704 -0.2824379740626589 6
223 -3.245459222958826 0.2928204927005614 6
224 -0.2821864006546141 -3.276265570346888 6
225 -0.7706429059012291 1.76953387237394 6
226 -1.881995773715032 -0.7122288706352804 6
227 -3.205017762596289 -1.877688851795921 6
228 1.877688851795921 -3.205017762596289 6
229 -1.877895055716945 3.20004042709261 6
230 3.205017762596289 1.877688851795921 6
231 -3.190299467437654 1.858846027555159 6
232 -1.82157748757567 -3.210823283133335 6
233 1.821621488411415 3.21155647150669 6
234 3.150420621323649 -1.894020310855883 6
235 -1.947425123895549 0.8232062055608277 6
236 1.97830019271874 0.8993274939920677 6
237 0.8760151526765376 -1.963868892956521 6
238 -0.2191915048585511 -0.7895922490419274 6
239 -0.4858155217569535 3.318461453656631 6
240 3.306116708429522 0.4691112301981743 6
241 -3.304891004685073 -0.4451821878742283 6
242 0.4857608641429242 -3.318045493515855 6
243 1.983851767623793 -0.9213634401462448 6
244 -3.223079004329624 3.223079004328387 6
245 3.223079004328387 3.223079004329624 6
246 3.223079004329624 -3.223079004328387 6
247 -3.223079004328386 -3.223079004329623 6
248 -2.416302837584656 -1.917722868909166 6
249 -1.93506226582691 2.401342598155055 6
250 2.325909182106554 1.744631997765081 6
251 1.738380856567476 -2.294099773575704 6
252 -1.459385827970036 0.03894028902253439 6
253 -2.402604900934793 1.757645521036837 6
254 1.721005307665208 2.323582579639697 6
255 2.30365312326707 -1.706442712213405 6
256 -1.746333813799344 -2.37117132175428 6
257 0.3660618128215981 0.5995229922681239 6
258 0.4461410772723607 -0.2069102798413358 6
259 -2.551286028272366 3.41246996993242 6
260 3.413465437033156 2.551244787488161 6
261 2.551244787488161 -3.413465437033156 6
262 -3.413465437033156 -2.551244787488162 6
263 2.536786182194517 3.418018311428651 6
264 3.405791141392042 -2.55126594668341 6
265 -3.413766910614844 2.544231090023265 6
266 -2.536777382027368 -3.41787167375398 6
267 -2.826049069423898 -2.263558836585009 5.17954469191728
268 2.470720882571436 -2.701949561487428 4.970551017125638
269 -2.601518766741926 2.686010584663564 4.97636971004462
270 2.942277343224923 2.568937531654154 4.956510866197347
271 1.388419908812669 -2.24210894226352 4.992444500338529
272 -1.767024302828972 -2.361263536712083 4.998636454914266
273 -1.761382863165577 -0.9672229452546088 4.969886554804535
274 -1.266571319434751 2.090379063615181 5.050213402617771
275 -0.2019112108949207 -0.4851392681414992 4.903793960319861
276 -0.9579007050379786 0.5653910022209995 4.999093373364891
277 0.1979191623533555 1.917586001046023 4.95831815732659
278 1.681846677363364 2.075950237246147 4.983116531346194
279 -2.565840806054211 0.03097246580291884 5.069450111090438
280 1.596086907019782 1.126799497221139 4.927198818461999
281 0.1918826812243615 -2.712791968916752 4.988198038094446
282 2.6541096902083 0.06631117810915994 5.032661742383109
283 2.31187113567796 -1.342182707423561 5.051269961228285
284 -0.2762511288927827 -1.695176229686872 5.005363005190667
285 1.610888345891635 -0.09524874207505685 4.992527764467523
286 0.3887558614599343 0.5995654250834396 4.999960681606251
287 1.571983568385942 2.947294519644378 5.014738934131456
288 -2.20605721570825 1.47037931920885 5.008289536574641
289 1.018856439960401 -1.040845466738509 5.040110557369106
290 -3.481423607080756 0.217364741549535 5.354609839416718
291 -0.395658229331134 -3.404656756145138 5.25924379307347
292 3.489943290582166 -0.1612783369804101 5.359429949684984
293 0.3887164063872493 3.223653983523178 4.60835905500606
294 -2.416733269173054 -3.357966197514433 5.36071595677741
295 2.200532748875291 3.458687198486283 5.372155876182458
296 -3.30248717077725 2.299658332163943 5.382379486448015
297 3.401173279102139 -2.273056156168176 5.341505990081145
298 3.494302933886304 2.024689983238513 4.649201748766051
299 -1.548924464666616 3.218889726185234 5.374458780236648
300 1.630757968156642 -3.273779585827459 4.612081786879079
301 -3.225957861864899 -1.294671726361842 4.757131445652994
302 -3.406211367895817 1.842903944114669 4.665350185035157
303 3.208141486359355 -1.753970307990093 4.650957086408254
304 -3.410913154559877 -2.582362694495169 4.615488574613819
305 2.501400747000363 -3.457081180387457 4.487675371202928
306 -2.538373652651667 3.450951057445394 4.588562942688927
307 3.502784550814267 2.465426084146993 5.478058400528585
308 1.535321856884184 3.506222966378906 4.559240194333442
309 -1.513572163373639 -3.473071746826877 4.611722688859557
310 -3.253786254063889 1.238319673438196 5.3959154221063
311 3.334467442576078 -1.118081804795146 5.324586642627483
312 -0.6345493725441658 3.126316225532711 4.965266522540714
313 0.8279918967359082 -3.385611780910079 4.6342953676499
314 2.884386908513125 1.284904150071133 4.863515313483426
315 0.3592202551772 3.226756097689198 5.371425462898052
316 -3.524049201832922 3.066924263360788 5.290844367937006
317 3.006795236777306 3.482794376195029 5.330746966442829
318 3.323866518638065 -3.138397481131805 5.298956238944999
319 -3.438207363736845 -3.348944873749287 5.296594344624456
320 -3.446868633146202 -0.688139784508246 5.379601642797688
321 3.438281234286667 0.7225237177709932 5.369614715463531
322 0.7542389114558977 -3.417077203236291 5.381186121422918
323 2.551858906263323 3.386001435481906 4.596779243866213
324 -2.332465683754644 3.518237261649643 5.32427331799746
325 1.312446342895035 3.477890229562939 5.556380507194414
326 -3.35184965189038 0.8750031663139883 4.656831745774385
327 3.364121050360607 -0.7029779380149876 4.638549384837735
328 -1.654474545147385 3.234479356955779 4.673472553159587
329 -0.293074193626701 -3.524040568492226 4.532820208239449
330 -1.368919696844785 -3.323200173433923 5.406983543364619
331 3.355875814822067 1.643253235666809 5.372374445379186
332 1.595982602830688 -3.277223713959222 5.340361606498491
333 -3.473045978396527 -1.58782696181187 5.45784560461482
334 -3.474247671436812 -0.1614246927433114 4.671738340083042
335 3.472846290174409 0.3286341549871176 4.669957525327998
336 3.413678144328058 -2.592704890341131 4.565331465527755
337 3.51544203575291 3.116740038351348 5.370234749201303
338 2.657910821389735 -3.446060373568528 5.513524680250364
339 -3.568644862612465 -2.49283273837298 5.433442214692717
340 -3.042494775942137 3.481595042633386 5.352264018648678
341 3.5041055417043 3.396843703644167 4.704932769487034
342 -2.63182216501765 -3.292809117753615 4.611933162827491
343 -3.518980713154935 2.721474715156454 4.642457453452179
344 3.438069445780642 -3.431264825146003 4.578318350973145
345 -3.435235964127087 -3.426599243586741 4.514785997003309
346 3.47226678064118 3.558291973024604 5.681972926421871
347 3.559917054981654 -3.503604092701976 5.693267125919566
348 -3.375261895620012 3.503187372643308 4.691675725429587
349 3.631232036486029 3.624041480071173 5.267433655876604
350 -3.552051288804864 3.474639315209625 5.675539367407181
351 -3.62261749545607 3.632677556273007 5.263533244945793
352 3.595371337456192 -3.668858477353687 5.154156516189426
END_COORDINATES
