ELEMENTS
1 319 345 191 65
2 272 294 309 330
3 288 279 276 235
4 269 78 109 143
5 268 336 80 303
6 267 272 201 294
7 189 187 330 309
8 287 270 79 323
9 111 92 272 309
10 269 202 296 253
11 270 287 203 295
12 276 273 216 252
13 281 92 99 329
14 277 278 280 112
15 87 282 314 280
16 280 286 277 82
17 269 109 302 143
18 288 269 296 253
19 140 110 80 336
20 276 115 84 96
21 96 288 279 276
22 284 281 213 92
23 205 288 276 235
24 156 306 324 157
25 345 191 65 1
26 112 280 277 82
27 296 288 253 310
28 37 319 247 5
29 267 272 273 248
30 188 187 189 309
31 272 273 284 72
32 189 330 291 309
33 92 281 291 329
34 271 268 255 251
35 270 287 295 323
36 288 302 109 326
37 277 280 278 220
38 209 267 301 273
39 273 77 96 84
40 252 205 276 235
41 276 84 115 275
42 268 255 204 234
43 131 268 80 303
44 276 216 192 252
45 269 324 306 340
46 273 85 128 301
47 279 209 301 273
48 267 272 342 81
49 268 234 204 297
50 79 287 323 108
51 95 273 275 84
52 267 272 294 342
53 288 269 133 109
54 37 339 247 319
55 232 201 272 294
56 129 112 277 82
57 295 270 317 203
58 283 255 268 234
59 269 78 133 109
60 156 328 324 306
61 191 29 345 342
62 247 267 201 294
63 281 88 271 313
64 283 255 271 268
65 299 46 312 158
66 244 269 202 296
67 283 268 131 303
68 141 111 81 342
69 142 79 323 108
70 29 345 1 191
71 269 306 324 328
72 268 297 204 318
73 286 220 280 277
74 275 216 238 192
75 294 191 319 342
76 277 287 278 89
77 350 340 244 316
78 284 273 275 95
79 269 348 124 343
80 271 131 268 127
81 276 274 205 225
82 268 344 122 336
83 269 253 249 202
84 85 279 301 273
85 263 295 317 203
86 270 341 121 323
87 283 327 303 91
88 156 299 324 328
89 209 267 273 248
90 284 219 273 272
91 277 274 276 225
92 268 255 251 204
93 270 278 126 314
94 284 219 272 213
95 345 342 304 319
96 278 270 250 314
97 269 328 324 299
98 272 342 309 294
99 283 282 311 327
100 350 44 244 340
101 277 93 276 274
102 298 270 106 314
103 316 269 296 343
104 279 209 273 226
105 184 191 294 342
106 172 179 318 336
107 280 282 314 236
108 250 280 314 236
109 288 274 276 73
110 318 268 297 336
111 283 91 282 327
112 273 85 114 128
113 288 205 276 274
114 312 277 198 274
115 287 270 278 79
116 210 46 312 299
117 289 271 284 113
118 267 273 128 301
119 143 269 124 343
120 283 268 271 131
121 267 209 227 248
122 121 142 79 323
123 122 140 80 336
124 111 342 272 81
125 135 95 275 84
126 284 76 281 92
127 123 141 81 342
128 277 93 274 103
129 287 203 278 270
130 106 270 126 314
131 120 272 284 72
132 211 250 314 236
133 281 92 76 99
134 270 230 250 331
135 274 193 205 225
136 96 288 276 73
137 272 120 92 132
138 105 267 128 301
139 285 236 282 280
140 95 120 284 72
141 272 128 267 273
142 269 78 125 133
143 289 237 284 271
144 268 80 127 131
145 272 256 232 213
146 284 281 200 213
147 282 280 87 102
148 112 277 278 89
149 284 120 76 92
150 274 269 328 125
151 274 269 299 328
152 285 280 282 102
153 272 111 132 92
154 310 279 290 326
155 286 220 277 217
156 311 282 292 327
157 288 205 274 193
158 241 279 209 320
159 274 93 73 103
160 273 95 284 72
161 280 278 250 314
162 265 244 202 296
163 270 121 79 323
164 284 219 238 216
165 269 124 78 143
166 245 263 317 203
167 280 278 220 194
168 266 247 201 294
169 268 122 80 336
170 282 314 116 87
171 240 282 211 321
172 284 273 219 216
173 320 279 334 290
174 279 85 301 119
175 286 217 277 276
176 282 98 327 91
177 287 278 130 79
178 286 220 217 257
179 289 286 275 258
180 281 224 200 213
181 314 282 335 321
182 334 320 147 301
183 289 113 284 83
184 279 326 90 101
185 123 345 342 304
186 204 297 264 318
187 280 112 278 70
188 273 77 84 114
189 284 271 281 113
190 289 286 258 285
191 170 314 335 321
192 285 282 75 102
193 93 96 276 73
194 289 286 134 275
195 284 237 281 271
196 278 254 220 194
197 285 282 283 91
198 273 196 272 219
199 350 44 6 244
200 270 331 298 307
201 299 274 328 312
202 338 318 246 347
203 267 144 301 304
204 181 268 318 344
205 268 180 332 300
206 24 300 305 107
207 338 58 347 246
208 289 134 286 285
209 273 196 226 209
210 196 209 273 248
211 285 75 282 91
212 287 130 108 79
213 158 299 328 312
214 272 219 256 213
215 130 112 278 89
216 277 214 287 315
217 315 277 198 312
218 329 189 291 309
219 287 277 315 293
220 285 282 236 199
221 69 276 115 275
222 273 128 114 72
223 272 196 273 248
224 218 289 258 285
225 293 277 312 74
226 351 155 316 154
227 58 246 8 347
228 179 318 352 178
229 167 166 317 349
230 287 130 278 89
231 289 271 113 71
232 289 284 237 207
233 281 313 329 117
234 282 87 75 102
235 231 296 253 310
236 165 287 308 163
237 325 165 287 315
238 281 313 117 88
239 278 70 126 280
240 286 192 275 258
241 272 232 256 201
242 242 281 208 322
243 287 254 278 203
244 280 194 236 250
245 16 17 169 298
246 121 270 16 341
247 270 16 169 298
248 179 352 318 344
249 86 274 328 125
250 286 192 276 275
251 314 278 126 280
252 41 310 153 151
253 278 70 112 130
254 281 183 313 322
255 286 275 276 69
256 135 69 115 275
257 272 72 120 132
258 274 269 249 299
259 62 291 189 330
260 177 55 311 175
261 165 287 315 293
262 273 226 216 252
263 274 93 276 73
264 285 283 97 91
265 341 317 337 349
266 161 44 350 340
267 181 344 318 352
268 148 155 316 343
269 272 111 81 132
270 280 102 70 87
271 272 219 196 256
272 271 255 195 251
273 210 312 198 274
274 224 281 242 291
275 285 97 75 91
276 273 272 128 72
277 89 277 293 74
278 159 165 315 293
279 271 281 313 322
280 339 145 319 37
281 267 247 339 319
282 286 285 134 94
283 278 250 270 203
284 279 209 226 197
285 225 210 198 274
286 287 254 203 233
287 2 186 68 344
288 186 344 352 68
289 186 181 352 344
290 12 312 118 293
291 13 164 165 308
292 286 192 258 257
293 289 285 97 134
294 278 270 126 79
295 348 351 66 155
296 186 352 185 68
297 186 181 185 352
298 288 133 90 109
299 290 41 310 153
300 27 188 189 309
301 267 294 319 342
302 316 269 348 340
303 289 83 284 275
304 99 281 329 117
305 272 267 128 81
306 280 278 194 250
307 280 82 112 70
308 277 276 217 225
309 43 296 148 316
310 283 271 255 195
311 181 352 318 185
312 57 297 172 318
313 277 276 93 286
314 279 223 197 212
315 269 328 104 306
316 270 230 307 203
317 299 269 229 324
318 106 270 298 136
319 328 312 86 11
320 39 241 209 320
321 284 200 219 213
322 177 55 292 311
323 276 205 217 225
324 333 267 227 339
325 105 267 301 304
326 268 228 338 204
327 137 24 305 107
328 174 341 169 173
329 122 344 305 23
330 269 340 316 244
331 181 23 305 344
332 284 200 281 237
333 289 113 83 71
334 223 279 241 290
335 272 267 201 248
336 282 236 199 211
337 289 271 195 237
338 282 222 199 215
339 286 206 280 220
340 177 311 292 327
341 13 89 293 100
342 284 113 281 76
343 286 206 220 257
344 221 239 315 198
345 278 126 130 79
346 277 112 129 74
347 147 320 334 290
348 327 20 91 98
349 222 282 240 292
350 206 218 258 285
351 283 255 234 215
352 326 34 90 101
353 275 69 134 135
354 53 240 211 321
355 313 25 117 88
356 100 89 293 74
357 267 105 128 81
358 268 204 251 228
359 289 283 285 243
360 116 18 87 314
361 286 206 258 285
362 269 124 306 78
363 270 169 337 307
364 66 348 3 162
365 270 136 121 16
366 273 72 84 95
367 92 99 329 27
368 271 127 71 131
369 285 236 280 206
370 276 192 205 252
371 270 230 203 250
372 276 115 96 93
373 285 97 134 94
374 81 123 342 304
375 161 66 162 348
376 161 157 348 162
377 268 122 305 80
378 40 223 241 290
379 60 242 208 322
380 301 85 32 119
381 268 80 107 127
382 289 275 284 207
383 281 271 88 113
384 286 134 275 69
385 64 294 184 191
386 50 295 160 317
387 319 150 345 65
388 281 208 271 237
389 269 259 244 202
390 270 121 136 79
391 177 171 292 54
392 277 103 129 93
393 155 43 148 316
394 171 177 292 335
395 179 57 172 318
396 40 290 147 153
397 272 128 132 81
398 319 145 345 150
399 54 222 240 292
400 104 269 306 78
401 245 270 307 203
402 282 75 98 91
403 316 350 340 351
404 139 104 306 78
405 270 136 16 298
406 169 270 298 307
407 289 71 283 271
408 267 201 262 247
409 107 268 305 80
410 153 147 334 290
411 118 86 312 11
412 104 86 328 125
413 105 267 304 81
414 338 268 204 318
415 138 105 304 81
416 144 267 339 304
417 180 268 305 300
418 268 181 338 180
419 315 47 165 159
420 91 283 131 303
421 43 155 154 316
422 167 166 50 317
423 179 57 318 178
424 190 64 191 319
425 61 291 183 189
426 277 220 214 198
427 288 235 205 193
428 18 298 106 314
429 174 67 341 173
430 300 107 25 88
431 145 345 304 319
432 46 159 312 158
433 22 344 2 179
434 333 320 39 209
435 348 269 306 340
436 146 320 147 39
437 129 277 93 286
438 47 221 239 315
439 317 337 346 245
440 287 108 89 308
441 283 271 71 131
442 279 90 77 101
443 289 285 218 243
444 164 165 308 163
445 160 164 308 163
446 282 98 116 335
447 275 192 238 258
448 26 99 329 117
449 284 275 83 95
450 337 346 245 51
451 61 224 242 291
452 286 280 285 94
453 210 274 249 299
454 36 143 124 343
455 22 140 122 336
456 284 207 275 238
457 282 211 314 236
458 100 12 118 293
459 289 283 195 271
460 118 100 293 74
461 15 142 121 323
462 284 113 76 83
463 289 258 275 207
464 285 280 102 94
465 285 236 206 199
466 279 101 119 334
467 286 82 280 94
468 289 97 285 283
469 271 251 195 237
470 294 63 184 187
471 346 51 7 245
472 29 141 123 342
473 90 288 109 326
474 98 282 327 335
475 269 249 229 202
476 270 106 126 79
477 110 91 131 303
478 286 206 285 280
479 275 135 83 95
480 171 170 321 53
481 289 83 275 134
482 101 279 326 334
483 179 22 344 336
484 313 26 329 117
485 279 209 197 241
486 269 78 104 125
487 296 148 151 42
488 278 254 250 203
489 267 227 201 248
490 172 56 175 297
491 280 94 82 102
492 289 283 71 97
493 119 279 334 301
494 116 282 335 314
495 182 322 183 60
496 272 201 256 248
497 98 19 116 335
498 284 200 237 207
499 271 127 88 113
500 289 218 258 207
501 279 85 119 77
502 269 202 229 259
503 270 136 106 79
504 277 220 198 217
505 272 128 72 132
506 289 195 207 237
507 282 116 75 87
508 271 208 251 237
509 273 196 219 216
510 289 83 134 97
511 101 119 334 33
512 302 143 109 35
513 348 36 124 343
514 344 22 122 336
515 140 336 21 110
516 124 139 306 78
517 304 138 123 30
518 23 122 137 305
519 306 139 124 9
520 169 51 337 307
521 318 347 185 352
522 8 352 68 185
523 260 245 307 203
524 347 8 185 352
525 319 190 5 65
526 282 240 211 199
527 267 262 201 227
528 341 15 121 323
529 137 107 305 80
530 289 195 283 243
531 281 242 200 224
532 123 138 304 81
533 261 246 338 204
534 345 29 123 342
535 45 299 229 324
536 17 106 298 136
537 281 208 237 200
538 10 139 104 306
539 228 268 338 332
540 31 138 105 304
541 122 137 305 80
542 230 270 307 331
543 38 333 227 339
544 13 108 308 89
545 271 127 113 71
546 289 83 97 71
547 284 219 207 238
548 277 89 112 74
549 285 199 206 218
550 284 83 76 95
551 285 199 218 243
552 284 95 76 120
553 111 28 342 141
554 281 88 76 113
555 111 92 309 27
556 276 93 69 115
557 314 270 250 331
558 303 336 21 172
559 45 156 324 157
560 136 17 16 298
561 145 339 144 38
562 24 180 305 300
563 144 31 301 304
564 169 168 52 307
565 181 180 59 338
566 328 10 104 306
567 280 194 220 206
568 285 102 75 94
569 111 309 272 342
570 283 255 243 195
571 273 196 216 226
572 273 72 114 84
573 306 139 9 10
574 304 138 30 31
575 169 51 307 52
576 23 24 305 137
577 145 37 339 38
578 181 59 58 338
579 340 157 44 324
580 319 190 65 191
581 118 293 312 74
582 274 86 103 73
583 274 86 73 125
584 282 98 75 116
585 280 82 70 102
586 276 205 192 217
587 286 69 82 94
588 160 50 49 295
589 63 64 294 184
590 283 71 97 131
591 43 296 42 148
592 274 193 210 249
593 172 56 297 57
594 281 76 117 99
595 122 268 305 344
596 181 58 185 338
597 87 314 126 280
598 149 319 145 37
599 169 173 337 51
600 181 344 305 268
601 124 348 306 9
602 161 44 340 157
603 286 258 206 257
604 275 207 258 238
605 279 101 77 119
606 283 131 97 91
607 284 200 207 219
608 179 344 318 336
609 149 145 319 150
610 348 316 340 351
611 173 341 337 349
612 277 74 129 103
613 277 217 198 225
614 274 210 193 225
615 214 221 315 198
616 299 45 158 156
617 161 348 340 351
618 161 6 66 351
619 146 333 38 144
620 31 105 301 304
621 168 170 52 331
622 180 182 59 332
623 300 268 305 107
624 286 134 69 94
625 281 208 200 242
626 279 241 197 223
627 289 195 243 218
628 288 133 96 90
629 285 75 97 94
630 177 54 292 55
631 280 194 206 236
632 288 73 96 133
633 40 290 153 41
634 288 253 212 235
635 351 66 155 154
636 67 167 349 166
637 161 6 351 350
638 179 178 352 68
639 281 117 76 88
640 350 161 340 351
641 167 341 349 317
642 344 179 352 68
643 149 150 319 65
644 282 240 199 222
645 289 195 218 207
646 278 126 70 130
647 283 255 215 243
648 275 134 83 135
649 315 48 165 47
650 170 52 331 53
651 146 39 38 333
652 24 300 107 25
653 10 11 328 104
654 301 105 31 32
655 182 59 332 60
656 26 99 27 329
657 61 62 291 189
658 343 36 143 35
659 22 140 336 21
660 288 253 235 193
661 14 15 323 142
662 28 342 141 29
663 55 56 311 175
664 106 18 17 298
665 299 46 158 45
666 23 2 122 344
667 348 351 161 66
668 9 3 124 348
669 16 4 121 341
670 29 123 1 345
671 22 122 2 344
672 15 121 4 341
673 36 124 3 348
674 13 100 293 12
675 320 39 40 147
676 155 351 316 348
677 287 325 233 295
678 4 16 174 341
679 162 3 9 348
680 278 254 194 250
681 111 28 27 309
682 327 20 98 19
683 148 343 302 35
684 351 6 154 350
685 166 349 7 346
686 347 8 352 178
687 41 310 151 42
688 326 34 101 33
689 171 53 321 54
690 61 322 60 183
691 312 47 159 46
692 287 108 130 89
693 13 108 14 308
694 163 49 48 325
695 62 330 187 63
696 272 256 196 248
697 287 254 233 214
698 303 20 21 110
699 302 34 35 109
700 58 347 8 185
701 161 44 6 350
702 173 51 7 346
703 331 52 230 53
704 11 118 12 312
705 157 348 162 9
706 341 349 67 167
707 345 1 30 123
708 267 81 342 304
709 43 6 350 154
710 190 64 319 5
711 166 346 7 50
712 57 347 178 8
713 25 117 26 313
714 119 33 32 334
715 19 116 335 18
716 4 341 67 167
717 2 344 68 179
718 150 345 65 1
719 66 155 3 348
720 67 166 349 7
721 8 178 68 352
722 149 319 5 65
723 351 6 66 154
724 84 96 273 276
725 273 96 279 276
726 252 273 279 276
727 77 96 279 273
728 148 296 151 302
729 213 92 272 284
730 120 272 92 284
731 145 144 339 304
732 192 276 275 216
733 273 216 275 276
734 187 309 294 330
735 184 187 309 294
736 172 297 175 303
737 33 326 153 334
738 153 34 326 33
739 273 226 252 279
740 197 252 226 279
741 153 310 290 326
742 43 316 350 244
743 238 284 216 275
744 273 216 284 275
745 77 90 279 96
746 288 279 90 96
747 69 129 93 286
748 286 129 277 82
749 69 82 129 286
750 276 69 93 286
751 210 299 312 274
752 331 168 298 307
753 84 135 115 275
754 273 276 275 84
755 90 279 288 326
756 288 279 310 326
757 277 225 198 274
758 322 271 332 313
759 114 85 273 77
760 279 273 85 77
761 274 328 312 86
762 74 277 312 103
763 118 74 312 86
764 163 287 308 295
765 308 14 323 108
766 287 308 323 108
767 142 323 14 108
768 285 199 243 282
769 283 285 243 282
770 215 283 243 282
771 199 215 243 282
772 233 263 203 295
773 160 163 308 295
774 49 263 233 295
775 160 295 49 163
776 315 325 165 48
777 315 325 48 214
778 257 192 217 286
779 276 217 192 286
780 163 48 165 325
781 287 163 165 325
782 279 252 276 235
783 197 252 279 235
784 212 197 279 235
785 288 212 279 235
786 269 274 249 288
787 253 269 249 288
788 193 253 249 288
789 274 193 249 288
790 277 220 278 214
791 287 277 278 214
792 254 287 278 214
793 220 254 278 214
794 274 269 125 288
795 73 274 125 288
796 133 73 125 288
797 269 133 125 288
798 212 231 253 310
799 4 174 67 341
800 288 326 310 302
801 310 153 151 326
802 296 288 310 302
803 43 6 244 350
804 269 288 296 302
805 109 288 269 302
806 215 234 283 311
807 148 316 296 343
808 283 327 311 303
809 175 176 311 177
810 297 283 311 303
811 336 297 303 268
812 172 318 297 336
813 110 131 80 303
814 268 271 127 300
815 107 268 127 300
816 88 107 127 300
817 271 88 127 300
818 271 268 251 332
819 208 271 251 332
820 271 268 332 300
821 182 322 332 313
822 86 74 312 103
823 70 87 126 280
824 274 86 312 103
825 277 274 312 103
826 279 290 223 310
827 212 279 223 310
828 147 40 320 290
829 334 153 290 326
830 40 223 290 41
831 281 224 213 291
832 183 61 322 291
833 62 224 291 213
834 281 183 322 291
835 61 62 224 291
836 282 292 222 311
837 215 282 222 311
838 171 54 321 292
839 321 171 292 335
840 292 54 222 55
841 89 277 287 293
842 293 277 315 312
843 308 89 287 293
844 293 12 159 165
845 13 293 165 12
846 232 266 201 294
847 64 191 319 294
848 266 64 247 294
849 232 63 266 294
850 63 64 266 294
851 287 233 203 295
852 167 50 160 317
853 270 245 317 203
854 295 50 49 263
855 163 49 325 295
856 287 163 325 295
857 231 265 202 296
858 302 148 296 343
859 265 43 244 296
860 231 265 296 42
861 43 265 42 296
862 234 264 204 297
863 172 336 297 303
864 246 204 264 318
865 297 56 234 264
866 297 56 264 57
867 87 18 106 314
868 314 270 331 298
869 87 106 126 314
870 298 17 168 170
871 298 18 17 170
872 229 210 249 299
873 156 45 324 299
874 269 229 249 299
875 210 229 46 299
876 146 301 333 144
877 229 46 299 45
878 300 182 332 313
879 313 300 25 88
880 24 180 300 182
881 24 182 300 25
882 180 182 332 300
883 88 300 271 313
884 85 32 105 301
885 267 144 333 301
886 85 105 128 301
887 146 301 144 31
888 146 301 31 32
889 34 90 109 326
890 302 34 109 326
891 152 148 302 35
892 152 34 35 302
893 269 302 296 343
894 20 110 303 91
895 327 20 303 91
896 172 176 21 303
897 176 20 21 303
898 176 172 175 303
899 123 345 304 30
900 319 145 339 304
901 145 30 304 345
902 145 304 31 144
903 145 304 30 31
904 319 64 247 5
905 268 305 181 180
906 149 319 37 5
907 24 305 180 181
908 23 24 181 305
909 157 9 306 348
910 148 36 343 35
911 124 269 306 348
912 156 157 10 306
913 157 306 9 10
914 230 260 307 203
915 52 230 307 331
916 307 51 245 260
917 260 52 230 307
918 307 51 260 52
919 293 308 89 13
920 165 308 287 293
921 13 308 14 164
922 317 270 341 337
923 164 14 160 308
924 309 329 189 27
925 187 309 188 184
926 92 329 291 309
927 309 28 188 184
928 309 28 27 188
929 168 52 307 331
930 293 308 13 165
931 41 212 223 310
932 232 330 294 272
933 290 41 223 310
934 212 310 288 279
935 152 148 151 302
936 232 63 294 330
937 19 327 177 335
938 187 62 189 330
939 281 213 92 291
940 272 92 330 309
941 177 20 327 19
942 283 311 282 215
943 55 215 222 311
944 148 155 343 36
945 292 55 222 311
946 155 348 316 343
947 342 267 304 319
948 159 293 315 312
949 12 159 312 293
950 11 312 159 158
951 11 312 12 159
952 335 177 292 327
953 62 232 330 63
954 346 245 7 50
955 183 182 313 322
956 346 173 337 349
957 182 25 183 313
958 182 300 25 313
959 271 300 332 313
960 170 314 331 298
961 170 331 314 321
962 18 116 335 314
963 170 18 335 314
964 168 170 331 298
965 298 18 170 314
966 25 313 26 183
967 209 279 301 320
968 32 119 334 301
969 32 334 147 301
970 333 209 301 320
971 183 26 329 313
972 67 349 173 7
973 267 301 333 209
974 349 173 7 346
975 330 63 294 187
976 279 334 290 326
977 277 214 315 198
978 159 47 312 315
979 317 346 50 245
980 221 48 315 47
981 48 221 315 214
982 351 316 350 154
983 157 161 348 340
984 157 348 306 340
985 316 269 244 296
986 43 316 154 350
987 43 316 244 296
988 317 166 346 349
989 169 173 341 337
990 270 169 341 337
991 50 245 263 317
992 317 166 50 346
993 295 50 263 317
994 318 347 352 178
995 268 181 318 338
996 181 318 338 185
997 246 338 204 318
998 318 57 347 178
999 57 246 264 318
1000 341 349 173 67
1001 267 319 339 304
1002 348 269 316 343
1003 319 267 247 294
1004 281 183 329 313
1005 64 319 247 294
1006 146 333 301 320
1007 146 32 147 301
1008 241 39 40 320
1009 320 40 241 290
1010 279 320 241 290
1011 186 2 23 344
1012 23 186 344 181
1013 310 296 151 42
1014 302 310 151 326
1015 323 167 160 317
1016 202 231 296 253
1017 150 1 30 345
1018 145 150 30 345
1019 297 56 175 311
1020 311 176 175 303
1021 270 295 317 323
1022 234 268 283 297
1023 170 53 331 321
1024 171 170 335 321
1025 321 53 240 54
1026 321 54 240 292
1027 282 321 240 292
1028 208 281 271 322
1029 332 208 271 322
1030 61 242 60 322
1031 322 61 242 291
1032 281 322 242 291
1033 295 323 160 317
1034 323 160 308 295
1035 15 323 167 160
1036 14 15 160 323
1037 287 323 308 295
1038 14 323 160 308
1039 324 157 306 340
1040 259 340 44 324
1041 259 45 229 324
1042 269 259 229 324
1043 338 318 347 185
1044 168 169 298 307
1045 298 17 169 168
1046 297 57 264 318
1047 325 49 48 233
1048 233 48 325 214
1049 287 233 325 214
1050 325 49 233 295
1051 214 325 287 315
1052 152 153 34 326
1053 152 302 151 326
1054 153 152 151 326
1055 152 34 302 326
1056 177 176 311 327
1057 177 176 327 20
1058 297 311 175 303
1059 176 20 303 327
1060 86 11 104 328
1061 11 328 312 158
1062 57 246 347 8
1063 269 104 328 125
1064 183 189 291 329
1065 281 183 291 329
1066 309 329 27 92
1067 26 329 189 183
1068 26 329 27 189
1069 272 213 232 330
1070 272 213 330 92
1071 62 232 213 330
1072 213 330 92 291
1073 62 213 291 330
1074 211 314 250 331
1075 331 230 211 53
1076 230 211 250 331
1077 211 282 314 321
1078 331 53 211 321
1079 331 211 314 321
1080 59 228 338 332
1081 332 208 60 228
1082 180 59 338 332
1083 332 59 228 60
1084 228 208 251 332
1085 268 228 251 332
1086 267 209 333 227
1087 262 38 227 339
1088 333 209 39 227
1089 267 262 227 339
1090 333 39 38 227
1091 55 215 311 234
1092 55 56 234 311
1093 327 176 311 303
1094 297 56 311 234
1095 234 297 283 311
1096 279 301 320 334
1097 33 101 326 334
1098 320 146 147 301
1099 147 33 153 334
1100 334 33 32 147
1101 282 321 292 335
1102 19 98 327 335
1103 335 18 170 171
1104 171 19 177 335
1105 19 335 171 18
1106 269 302 343 143
1107 343 143 302 35
1108 338 58 185 347
1109 36 348 3 155
1110 296 310 151 302
1111 336 110 80 303
1112 344 268 318 336
1113 22 336 179 172
1114 297 283 303 268
1115 22 336 172 21
1116 270 337 245 307
1117 337 51 245 307
1118 337 173 346 51
1119 270 317 245 337
1120 317 346 337 349
1121 228 261 338 204
1122 268 180 338 332
1123 338 58 246 261
1124 261 59 228 338
1125 338 59 58 261
1126 267 262 339 247
1127 144 267 333 339
1128 339 37 247 262
1129 38 144 333 339
1130 339 37 262 38
1131 269 259 340 244
1132 44 340 259 244
1133 45 259 44 324
1134 269 324 340 259
1135 157 45 44 324
1136 167 341 317 323
1137 270 323 317 341
1138 318 57 246 347
1139 167 15 341 323
1140 16 169 174 341
1141 15 341 4 167
1142 10 11 158 328
1143 342 184 309 294
1144 184 191 342 29
1145 309 342 111 28
1146 28 184 342 29
1147 156 158 299 328
1148 282 335 292 327
1149 156 10 328 306
1150 156 10 158 328
1151 41 231 310 42
1152 169 341 16 270
1153 41 231 212 310
1154 231 296 310 42
1155 288 212 253 310
1156 239 47 312 46
1157 191 345 319 342
1158 239 315 198 312
1159 239 312 210 46
1160 312 47 239 315
1161 210 239 198 312
1162 208 322 332 60
1163 182 60 332 322
1164 333 320 146 39
1165 303 336 110 21
1166 309 342 28 184
1167 330 92 291 309
1168 155 36 348 343
END_ELEMENTS
