GiD Post Results File 1.0
 
Result VELOC ALYA  0.00000000E+00 Vector OnNodes
ComponentNames VELOC_X,VELOC_Y,VELOC_Z
Values
        1  0.00000000E+000  0.00000000E+000
        2  0.00000000E+000  0.00000000E+000
        3  0.00000000E+000  0.00000000E+000
        4  0.00000000E+000  0.00000000E+000
        5  0.00000000E+000  0.00000000E+000
        6  0.00000000E+000  0.00000000E+000
        7  0.00000000E+000  0.00000000E+000
        8  0.00000000E+000  0.00000000E+000
        9  0.00000000E+000  0.00000000E+000
       10  0.00000000E+000  0.00000000E+000
       11  0.00000000E+000  0.00000000E+000
       12  0.00000000E+000  0.00000000E+000
       13  0.00000000E+000  0.00000000E+000
       14  0.00000000E+000  0.00000000E+000
       15  0.00000000E+000  0.00000000E+000
       16  0.00000000E+000  0.00000000E+000
       17  0.00000000E+000  0.00000000E+000
       18  0.00000000E+000  0.00000000E+000
       19  0.00000000E+000  0.00000000E+000
       20  0.00000000E+000  0.00000000E+000
       21  0.00000000E+000  0.00000000E+000
       22  0.00000000E+000  0.00000000E+000
       23  0.00000000E+000  0.00000000E+000
       24  0.00000000E+000  0.00000000E+000
       25  0.00000000E+000  0.00000000E+000
       26  0.00000000E+000  0.00000000E+000
       27  0.00000000E+000  0.00000000E+000
       28  0.00000000E+000  0.00000000E+000
       29  0.00000000E+000  0.00000000E+000
       30  0.00000000E+000  0.00000000E+000
       31  0.00000000E+000  0.00000000E+000
       32  0.00000000E+000  0.00000000E+000
       33  0.00000000E+000  0.00000000E+000
       34  0.00000000E+000  0.00000000E+000
       35  0.00000000E+000  0.00000000E+000
       36  0.00000000E+000  0.00000000E+000
       37  0.00000000E+000  0.00000000E+000
       38  0.00000000E+000  0.00000000E+000
       39  0.00000000E+000  0.00000000E+000
       40  0.00000000E+000  0.00000000E+000
       41  0.00000000E+000  0.00000000E+000
       42  0.00000000E+000  0.00000000E+000
       43  0.00000000E+000  0.00000000E+000
       44  0.00000000E+000  0.00000000E+000
       45  0.00000000E+000  0.00000000E+000
       46  0.00000000E+000  0.00000000E+000
       47  0.00000000E+000  0.00000000E+000
       48  0.00000000E+000  0.00000000E+000
       49  0.00000000E+000  0.00000000E+000
       50  0.00000000E+000  0.00000000E+000
       51  0.00000000E+000  0.00000000E+000
       52  0.00000000E+000  0.00000000E+000
       53  0.00000000E+000  0.00000000E+000
       54  0.00000000E+000  0.00000000E+000
       55  0.00000000E+000  0.00000000E+000
       56  0.00000000E+000  0.00000000E+000
       57  0.00000000E+000  0.00000000E+000
       58  0.00000000E+000  0.00000000E+000
       59  0.00000000E+000  0.00000000E+000
       60  0.00000000E+000  0.00000000E+000
       61  0.00000000E+000  0.00000000E+000
       62  0.00000000E+000  0.00000000E+000
       63  0.00000000E+000  0.00000000E+000
       64  0.00000000E+000  0.00000000E+000
       65  0.00000000E+000  0.00000000E+000
       66  0.00000000E+000  0.00000000E+000
       67  0.00000000E+000  0.00000000E+000
       68  0.00000000E+000  0.00000000E+000
       69  0.00000000E+000  0.00000000E+000
       70  0.00000000E+000  0.00000000E+000
       71  0.00000000E+000  0.00000000E+000
       72  0.00000000E+000  0.00000000E+000
       73  0.00000000E+000  0.00000000E+000
       74  0.00000000E+000  0.00000000E+000
       75  0.00000000E+000  0.00000000E+000
       76  0.00000000E+000  0.00000000E+000
       77  0.00000000E+000  0.00000000E+000
       78  0.00000000E+000  0.00000000E+000
       79  0.00000000E+000  0.00000000E+000
       80  0.00000000E+000  0.00000000E+000
       81  0.00000000E+000  0.00000000E+000
       82  0.00000000E+000  0.00000000E+000
       83  0.00000000E+000  0.00000000E+000
       84  0.00000000E+000  0.00000000E+000
       85  0.00000000E+000  0.00000000E+000
       86  0.00000000E+000  0.00000000E+000
       87  0.00000000E+000  0.00000000E+000
       88  0.00000000E+000  0.00000000E+000
       89  0.00000000E+000  0.00000000E+000
       90  0.00000000E+000  0.00000000E+000
       91  0.00000000E+000  0.00000000E+000
       92  0.10000000E+001  0.00000000E+000
       93  0.10000000E+001  0.00000000E+000
       94  0.00000000E+000  0.00000000E+000
       95  0.00000000E+000  0.00000000E+000
       96  0.00000000E+000  0.00000000E+000
       97  0.00000000E+000  0.00000000E+000
       98  0.10000000E+001  0.00000000E+000
       99  0.00000000E+000  0.00000000E+000
      100  0.00000000E+000  0.00000000E+000
      101  0.00000000E+000  0.00000000E+000
      102  0.10000000E+001  0.00000000E+000
      103  0.00000000E+000  0.00000000E+000
      104  0.00000000E+000  0.00000000E+000
      105  0.00000000E+000  0.00000000E+000
      106  0.10000000E+001  0.00000000E+000
      107  0.00000000E+000  0.00000000E+000
      108  0.00000000E+000  0.00000000E+000
      109  0.00000000E+000  0.00000000E+000
      110  0.10000000E+001  0.00000000E+000
      111  0.00000000E+000  0.00000000E+000
      112  0.00000000E+000  0.00000000E+000
      113  0.00000000E+000  0.00000000E+000
      114  0.00000000E+000  0.00000000E+000
      115  0.10000000E+001  0.00000000E+000
      116  0.00000000E+000  0.00000000E+000
      117  0.10000000E+001  0.00000000E+000
      118  0.00000000E+000  0.00000000E+000
      119  0.10000000E+001  0.00000000E+000
      120  0.00000000E+000  0.00000000E+000
      121  0.00000000E+000  0.00000000E+000
End values
Result PRESS ALYA  0.00000000E+00 Scalar OnNodes
ComponentNames PRESS
Values
        1  0.00000000E+000
        2  0.00000000E+000
        3  0.00000000E+000
        4  0.00000000E+000
        5  0.00000000E+000
        6  0.00000000E+000
        7  0.00000000E+000
        8  0.00000000E+000
        9  0.00000000E+000
       10  0.00000000E+000
       11  0.00000000E+000
       12  0.00000000E+000
       13  0.00000000E+000
       14  0.00000000E+000
       15  0.00000000E+000
       16  0.00000000E+000
       17  0.00000000E+000
       18  0.00000000E+000
       19  0.00000000E+000
       20  0.00000000E+000
       21  0.00000000E+000
       22  0.00000000E+000
       23  0.00000000E+000
       24  0.00000000E+000
       25  0.00000000E+000
       26  0.00000000E+000
       27  0.00000000E+000
       28  0.00000000E+000
       29  0.00000000E+000
       30  0.00000000E+000
       31  0.00000000E+000
       32  0.00000000E+000
       33  0.00000000E+000
       34  0.00000000E+000
       35  0.00000000E+000
       36  0.00000000E+000
       37  0.00000000E+000
       38  0.00000000E+000
       39  0.00000000E+000
       40  0.00000000E+000
       41  0.00000000E+000
       42  0.00000000E+000
       43  0.00000000E+000
       44  0.00000000E+000
       45  0.00000000E+000
       46  0.00000000E+000
       47  0.00000000E+000
       48  0.00000000E+000
       49  0.00000000E+000
       50  0.00000000E+000
       51  0.00000000E+000
       52  0.00000000E+000
       53  0.00000000E+000
       54  0.00000000E+000
       55  0.00000000E+000
       56  0.00000000E+000
       57  0.00000000E+000
       58  0.00000000E+000
       59  0.00000000E+000
       60  0.00000000E+000
       61  0.00000000E+000
       62  0.00000000E+000
       63  0.00000000E+000
       64  0.00000000E+000
       65  0.00000000E+000
       66  0.00000000E+000
       67  0.00000000E+000
       68  0.00000000E+000
       69  0.00000000E+000
       70  0.00000000E+000
       71  0.00000000E+000
       72  0.00000000E+000
       73  0.00000000E+000
       74  0.00000000E+000
       75  0.00000000E+000
       76  0.00000000E+000
       77  0.00000000E+000
       78  0.00000000E+000
       79  0.00000000E+000
       80  0.00000000E+000
       81  0.00000000E+000
       82  0.00000000E+000
       83  0.00000000E+000
       84  0.00000000E+000
       85  0.00000000E+000
       86  0.00000000E+000
       87  0.00000000E+000
       88  0.00000000E+000
       89  0.00000000E+000
       90  0.00000000E+000
       91  0.00000000E+000
       92  0.00000000E+000
       93  0.00000000E+000
       94  0.00000000E+000
       95  0.00000000E+000
       96  0.00000000E+000
       97  0.00000000E+000
       98  0.00000000E+000
       99  0.00000000E+000
      100  0.00000000E+000
      101  0.00000000E+000
      102  0.00000000E+000
      103  0.00000000E+000
      104  0.00000000E+000
      105  0.00000000E+000
      106  0.00000000E+000
      107  0.00000000E+000
      108  0.00000000E+000
      109  0.00000000E+000
      110  0.00000000E+000
      111  0.00000000E+000
      112  0.00000000E+000
      113  0.00000000E+000
      114  0.00000000E+000
      115  0.00000000E+000
      116  0.00000000E+000
      117  0.00000000E+000
      118  0.00000000E+000
      119  0.00000000E+000
      120  0.00000000E+000
      121  0.00000000E+000
End values
Result VELOC ALYA  0.14852552E+00 Vector OnNodes
ComponentNames VELOC_X,VELOC_Y,VELOC_Z
Values
        1  0.00000000E+000  0.00000000E+000
        2  0.00000000E+000  0.00000000E+000
        3  0.00000000E+000  0.00000000E+000
        4 -0.35844259E-002  0.34589732E-002
        5  0.00000000E+000  0.00000000E+000
        6  0.00000000E+000  0.00000000E+000
        7 -0.84813023E-002  0.31033727E-002
        8 -0.42076085E-002  0.89597363E-002
        9 -0.99629094E-002  0.80263441E-002
       10  0.00000000E+000  0.00000000E+000
       11  0.00000000E+000  0.00000000E+000
       12 -0.12435516E-001  0.22663304E-002
       13 -0.52204200E-002  0.15548903E-001
       14 -0.14556390E-001  0.58677963E-002
       15 -0.12334790E-001  0.13856457E-001
       16  0.00000000E+000  0.00000000E+000
       17  0.00000000E+000  0.00000000E+000
       18 -0.14998961E-001  0.12083050E-002
       19 -0.69523258E-002  0.24033670E-001
       20 -0.17947955E-001  0.10111687E-001
       21 -0.17486985E-001  0.31109095E-002
       22 -0.16259579E-001  0.21211866E-001
       23  0.00000000E+000  0.00000000E+000
       24  0.00000000E+000  0.00000000E+000
       25 -0.21458889E-001  0.53723473E-002
       26 -0.23406361E-001  0.15332299E-001
       27 -0.15926197E-001  0.38790955E-004
       28 -0.98432820E-002  0.35613554E-001
       29 -0.18539367E-001  0.78320688E-004
       30 -0.22520083E-001  0.30825688E-001
       31 -0.27748646E-001  0.81202419E-002
       32 -0.22717038E-001  0.14125663E-003
       33 -0.31615780E-001  0.21778067E-001
       34  0.00000000E+000  0.00000000E+000
       35  0.00000000E+000  0.00000000E+000
       36 -0.15100795E-001 -0.11405126E-002
       37 -0.14993614E-001  0.52336616E-001
       38 -0.17623107E-001 -0.29878711E-002
       39 -0.32752798E-001  0.43471623E-001
       40 -0.29314247E-001  0.31738765E-003
       41 -0.36830598E-001  0.11417296E-001
       42 -0.21675952E-001 -0.51462063E-002
       43 -0.43716516E-001  0.29315472E-001
       44  0.00000000E+000  0.00000000E+000
       45  0.00000000E+000  0.00000000E+000
       46 -0.12550047E-001 -0.22374305E-002
       47 -0.25653457E-001  0.78163234E-001
       48 -0.38710365E-001  0.62871990E-003
       49 -0.28138699E-001 -0.76112696E-002
       50 -0.49155986E-001  0.14988778E-001
       51 -0.14732678E-001 -0.58244289E-002
       52 -0.50666171E-001  0.59284946E-001
       53 -0.18265726E-001 -0.10048933E-001
       54 -0.61295720E-001  0.36480676E-001
       55 -0.37556607E-001 -0.10367470E-001
       56 -0.51097830E-001  0.11515230E-002
       57  0.00000000E+000  0.00000000E+000
       58  0.00000000E+000  0.00000000E+000
       59 -0.85806617E-002 -0.31069936E-002
       60 -0.24030940E-001 -0.15168118E-001
       61 -0.54187256E-001  0.12146426E+000
       62 -0.64688389E-001  0.17778019E-001
       63 -0.10110361E-001 -0.80702213E-002
       64 -0.84110332E-001  0.74089811E-001
       65 -0.50408030E-001 -0.12961902E-001
       66 -0.12629460E-001 -0.14014321E-001
       67 -0.85223762E-001  0.38543969E-001
       68 -0.32889008E-001 -0.21385917E-001
       69 -0.65856403E-001  0.19515926E-002
       70 -0.16891415E-001 -0.21542774E-001
       71 -0.81624779E-001  0.17452595E-001
       72  0.00000000E+000  0.00000000E+000
       73  0.00000000E+000  0.00000000E+000
       74 -0.36161953E-002 -0.34926778E-002
       75 -0.11934351E+000  0.17627568E+000
       76 -0.42904181E-002 -0.90727316E-002
       77 -0.46174062E-001 -0.28328260E-001
       78 -0.66505023E-001 -0.14042775E-001
       79 -0.82428914E-001  0.62941548E-001
       80 -0.23877870E-001 -0.31430860E-001
       81 -0.80411312E-001  0.28050891E-002
       82 -0.53895532E-002 -0.15847686E-001
       83 -0.46875588E-001  0.25426427E-001
       84 -0.72799362E-002 -0.24679191E-001
       85 -0.29136739E-001  0.10720746E-001
       86 -0.65586468E-001 -0.33786014E-001
       87  0.00000000E+000  0.00000000E+000
       88  0.00000000E+000  0.00000000E+000
       89 -0.35700638E-001 -0.44477317E-001
       90 -0.83270496E-001 -0.11354772E-001
       91  0.00000000E+000  0.00000000E+000
       92  0.10000000E+001  0.00000000E+000
       93  0.10000000E+001  0.00000000E+000
       94  0.00000000E+000  0.00000000E+000
       95 -0.10530793E-001 -0.36948678E-001
       96 -0.22841636E-001  0.26633527E-002
       97  0.00000000E+000  0.00000000E+000
       98  0.10000000E+001  0.00000000E+000
       99 -0.57313884E-001 -0.60246097E-001
      100 -0.90662085E-001 -0.31490811E-001
      101  0.00000000E+000  0.00000000E+000
      102  0.10000000E+001  0.00000000E+000
      103 -0.16599808E-001 -0.55141144E-001
      104 -0.25613487E-001 -0.42004612E-002
      105  0.00000000E+000  0.00000000E+000
      106  0.10000000E+001  0.00000000E+000
      107 -0.98563956E-001 -0.70183160E-001
      108 -0.30128848E-001 -0.84571449E-001
      109 -0.39526135E-001 -0.14332093E-001
      110  0.10000000E+001  0.00000000E+000
      111  0.00000000E+000  0.00000000E+000
      112 -0.72750932E-001 -0.13720699E+000
      113 -0.75140003E-001 -0.41176439E-001
      114  0.00000000E+000  0.00000000E+000
      115  0.10000000E+001  0.00000000E+000
      116 -0.15039269E+000 -0.18088711E+000
      117  0.10000000E+001  0.00000000E+000
      118  0.00000000E+000  0.00000000E+000
      119  0.10000000E+001  0.00000000E+000
      120  0.00000000E+000  0.00000000E+000
      121  0.00000000E+000  0.00000000E+000
End values
Result PRESS ALYA  0.14852552E+00 Scalar OnNodes
ComponentNames PRESS
Values
        1 -0.31505393E+002
        2 -0.31506865E+002
        3 -0.31503825E+002
        4 -0.31505026E+002
        5 -0.31509692E+002
        6 -0.31501874E+002
        7 -0.31500435E+002
        8 -0.31510064E+002
        9 -0.31503836E+002
       10 -0.31501361E+002
       11 -0.31512921E+002
       12 -0.31498146E+002
       13 -0.31515216E+002
       14 -0.31494847E+002
       15 -0.31509390E+002
       16 -0.31517309E+002
       17 -0.31501513E+002
       18 -0.31499871E+002
       19 -0.31521038E+002
       20 -0.31494697E+002
       21 -0.31494377E+002
       22 -0.31517658E+002
       23 -0.31501371E+002
       24 -0.31523199E+002
       25 -0.31489321E+002
       26 -0.31501462E+002
       27 -0.31502933E+002
       28 -0.31527982E+002
       29 -0.31503765E+002
       30 -0.31527119E+002
       31 -0.31488222E+002
       32 -0.31499214E+002
       33 -0.31511739E+002
       34 -0.31497935E+002
       35 -0.31534634E+002
       36 -0.31502015E+002
       37 -0.31539564E+002
       38 -0.31510250E+002
       39 -0.31538772E+002
       40 -0.31492297E+002
       41 -0.31492729E+002
       42 -0.31509027E+002
       43 -0.31524312E+002
       44 -0.31496429E+002
       45 -0.31557492E+002
       46 -0.31501373E+002
       47 -0.31561293E+002
       48 -0.31487901E+002
       49 -0.31498988E+002
       50 -0.31501220E+002
       51 -0.31508863E+002
       52 -0.31554391E+002
       53 -0.31508388E+002
       54 -0.31536957E+002
       55 -0.31488799E+002
       56 -0.31483237E+002
       57 -0.31497433E+002
       58 -0.31598526E+002
       59 -0.31500948E+002
       60 -0.31498985E+002
       61 -0.31601559E+002
       62 -0.31510749E+002
       63 -0.31506678E+002
       64 -0.31578070E+002
       65 -0.31475045E+002
       66 -0.31505717E+002
       67 -0.31549561E+002
       68 -0.31486305E+002
       69 -0.31480077E+002
       70 -0.31496675E+002
       71 -0.31518266E+002
       72 -0.31692236E+002
       73 -0.31498223E+002
       74 -0.31499914E+002
       75 -0.31678755E+002
       76 -0.31502473E+002
       77 -0.31470272E+002
       78 -0.31457005E+002
       79 -0.31610548E+002
       80 -0.31482457E+002
       81 -0.31482037E+002
       82 -0.31502863E+002
       83 -0.31561221E+002
       84 -0.31496618E+002
       85 -0.31523088E+002
       86 -0.31445893E+002
       87 -0.31500251E+002
       88 -0.84955523E+002
       89 -0.31465103E+002
       90 -0.31446726E+002
       91 -0.31501299E+002
       92 -0.31666046E+002
       93 -0.31607443E+002
       94 -0.31502429E+002
       95 -0.31482468E+002
       96 -0.31486029E+002
       97 -0.31501910E+002
       98 -0.31558540E+002
       99 -0.31437404E+002
      100 -0.31420705E+002
      101 -0.31497735E+002
      102 -0.31519664E+002
      103 -0.31462127E+002
      104 -0.31448279E+002
      105 -0.31485640E+002
      106 -0.31484206E+002
      107 -0.31398853E+002
      108 -0.31431578E+002
      109 -0.31409934E+002
      110 -0.31450029E+002
      111 -0.31465146E+002
      112 -0.31376394E+002
      113 -0.31371346E+002
      114 -0.31436195E+002
      115 -0.31412100E+002
      116 -0.31296102E+002
      117 -0.31370213E+002
      118 -0.31383831E+002
      119 -0.31276220E+002
      120 -0.31255685E+002
      121  0.00000000E+000
End values
