Problem name:  Small01
Geometry file  
node id given
element id given
part
         1
Volume Mesh
coordinates
       289
         1
         2
         3
         4
         5
         6
         7
         8
         9
        10
        11
        12
        13
        14
        15
        16
        17
        18
        19
        20
        21
        22
        23
        24
        25
        26
        27
        28
        29
        30
        31
        32
        33
        34
        35
        36
        37
        38
        39
        40
        41
        42
        43
        44
        45
        46
        47
        48
        49
        50
        51
        52
        53
        54
        55
        56
        57
        58
        59
        60
        61
        62
        63
        64
        65
        66
        67
        68
        69
        70
        71
        72
        73
        74
        75
        76
        77
        78
        79
        80
        81
        82
        83
        84
        85
        86
        87
        88
        89
        90
        91
        92
        93
        94
        95
        96
        97
        98
        99
       100
       101
       102
       103
       104
       105
       106
       107
       108
       109
       110
       111
       112
       113
       114
       115
       116
       117
       118
       119
       120
       121
       122
       123
       124
       125
       126
       127
       128
       129
       130
       131
       132
       133
       134
       135
       136
       137
       138
       139
       140
       141
       142
       143
       144
       145
       146
       147
       148
       149
       150
       151
       152
       153
       154
       155
       156
       157
       158
       159
       160
       161
       162
       163
       164
       165
       166
       167
       168
       169
       170
       171
       172
       173
       174
       175
       176
       177
       178
       179
       180
       181
       182
       183
       184
       185
       186
       187
       188
       189
       190
       191
       192
       193
       194
       195
       196
       197
       198
       199
       200
       201
       202
       203
       204
       205
       206
       207
       208
       209
       210
       211
       212
       213
       214
       215
       216
       217
       218
       219
       220
       221
       222
       223
       224
       225
       226
       227
       228
       229
       230
       231
       232
       233
       234
       235
       236
       237
       238
       239
       240
       241
       242
       243
       244
       245
       246
       247
       248
       249
       250
       251
       252
       253
       254
       255
       256
       257
       258
       259
       260
       261
       262
       263
       264
       265
       266
       267
       268
       269
       270
       271
       272
       273
       274
       275
       276
       277
       278
       279
       280
       281
       282
       283
       284
       285
       286
       287
       288
       289
 0.50000000E+00
 0.50000000E+00
 0.49039264E+00
 0.46193977E+00
 0.41573481E+00
 0.35355339E+00
 0.27778512E+00
 0.19134172E+00
 0.97545161E-01
 0.30616170E-16
-0.97545161E-01
-0.19134172E+00
-0.27778512E+00
-0.35355339E+00
-0.41573481E+00
-0.46193977E+00
-0.49039264E+00
-0.50000000E+00
-0.49039264E+00
-0.46193977E+00
-0.41573481E+00
-0.35355339E+00
-0.27778512E+00
-0.19134172E+00
-0.97545161E-01
 0.12404191E-14
 0.97545161E-01
 0.19134172E+00
 0.27778512E+00
 0.35355339E+00
 0.41573481E+00
 0.46193977E+00
 0.49039264E+00
 0.46193977E+00
 0.35355339E+00
 0.19134172E+00
 0.30616170E-16
-0.19134172E+00
-0.35355339E+00
-0.46193977E+00
-0.50000000E+00
-0.46193977E+00
-0.35355339E+00
-0.19134172E+00
-0.91848510E-16
 0.19134172E+00
 0.35355339E+00
 0.46193977E+00
 0.49063201E+00
 0.41519222E+00
 0.26690928E+00
 0.21524573E-01
-0.21088062E+00
-0.40832133E+00
-0.49017588E+00
-0.49017588E+00
-0.40832133E+00
-0.21088062E+00
 0.21524573E-01
 0.26690928E+00
 0.41519222E+00
 0.49063201E+00
 0.31486479E+00
 0.46199454E+00
-0.97471980E-01
-0.43947689E+00
-0.28284890E+00
 0.10365661E+00
-0.43947689E+00
-0.97471980E-01
-0.28284890E+00
 0.31486479E+00
 0.46199454E+00
 0.10365661E+00
-0.50000000E+00
-0.30754499E+00
 0.30755213E+00
-0.61699414E-05
-0.15393105E+00
 0.15391215E+00
-0.12859073E-07
-0.15392919E+00
 0.15392964E+00
 0.38172103E+00
 0.44425568E+00
 0.38211982E+00
 0.23055553E+00
 0.29355466E+00
 0.65315981E-01
-0.38171916E+00
-0.44426286E+00
-0.23053640E+00
-0.38212732E+00
-0.29355475E+00
-0.65326529E-01
-0.11394569E-05
-0.77004951E-01
-0.15402156E+00
 0.77002721E-01
 0.15402083E+00
-0.23098563E+00
-0.30628830E+00
-0.22696018E+00
-0.76759777E-01
 0.23097964E+00
 0.30629496E+00
 0.76750392E-01
 0.22694986E+00
 0.41562995E-06
 0.77012673E-01
-0.77012532E-01
 0.51834587E-01
-0.51844050E-01
 0.41899032E+00
 0.44402567E+00
 0.41797105E+00
 0.34514393E+00
 0.38128001E+00
 0.34508484E+00
 0.26912253E+00
 0.30616685E+00
 0.33767884E+00
 0.26606144E+00
 0.19193342E+00
 0.22925949E+00
 0.19597343E+00
 0.11184169E+00
 0.13427866E+00
 0.27036406E+00
 0.41864071E+00
-0.41899043E+00
-0.44403070E+00
-0.34534986E+00
-0.41792310E+00
-0.38130127E+00
-0.26918146E+00
-0.34506959E+00
-0.30616656E+00
-0.19206484E+00
-0.26620121E+00
-0.22930779E+00
-0.33756343E+00
-0.11184090E+00
-0.19591419E+00
-0.13427066E+00
-0.27036224E+00
-0.41864306E+00
-0.39180397E-05
-0.36657187E-01
-0.76350831E-01
 0.36738265E-01
 0.76357673E-01
-0.11538273E+00
-0.15390660E+00
-0.19242648E+00
-0.23093077E+00
-0.11549489E+00
-0.38503177E-01
-0.77009607E-01
 0.11536403E+00
 0.15389051E+00
 0.38505375E-01
 0.11550169E+00
 0.77010444E-01
 0.19241849E+00
 0.23092241E+00
-0.75218540E-07
 0.38419105E-01
-0.38428047E-01
-0.26932142E+00
-0.30741365E+00
-0.34503792E+00
-0.38189692E+00
-0.26906545E+00
-0.19242671E+00
-0.23041600E+00
-0.19165686E+00
-0.11536597E+00
-0.15327907E+00
-0.25709301E+00
-0.18976714E+00
-0.11460924E+00
-0.35299616E-01
-0.29090869E+00
-0.26548884E+00
-0.33716551E+00
 0.26929384E+00
 0.30738378E+00
 0.19246017E+00
 0.26914225E+00
 0.23044330E+00
 0.34500949E+00
 0.38188848E+00
 0.11540722E+00
 0.19166063E+00
 0.15325215E+00
 0.35518025E-01
 0.11460595E+00
 0.18979561E+00
 0.25697751E+00
 0.29089961E+00
 0.33733642E+00
 0.26531577E+00
 0.25389641E-04
 0.38473903E-01
 0.76989015E-01
-0.38468355E-01
-0.76983774E-01
 0.11549978E+00
 0.15401004E+00
 0.19248612E+00
 0.11551228E+00
 0.38505467E-01
-0.11549558E+00
-0.15400681E+00
-0.38506140E-01
-0.11551627E+00
-0.19249015E+00
-0.40600523E-07
-0.38501047E-01
 0.38502661E-01
-0.34069581E+00
 0.34069666E+00
 0.15043543E+00
-0.15043925E+00
 0.22644628E-06
-0.16435080E+00
 0.16432853E+00
 0.37982837E+00
 0.26148581E+00
-0.37982756E+00
-0.26148811E+00
-0.40327871E-05
-0.83990469E-01
-0.17152944E+00
 0.84089134E-01
 0.17154374E+00
-0.24717203E+00
-0.31171386E+00
-0.22570462E+00
-0.84046864E-01
 0.24717351E+00
 0.31172137E+00
 0.84748294E-01
 0.22555268E+00
 0.92207058E-04
 0.84107489E-01
-0.84268038E-01
-0.15480370E+00
-0.41972618E+00
-0.55013574E-01
-0.40155429E+00
 0.77776392E-01
 0.18603852E+00
 0.11891981E+00
-0.35207590E+00
 0.44047064E+00
-0.70334485E-01
 0.42002482E+00
 0.43061541E+00
 0.36732180E+00
-0.46214325E+00
 0.29842621E+00
-0.26249853E+00
-0.14486470E+00
 0.24177992E-01
-0.46448910E+00
 0.26519726E+00
 0.41407080E+00
 0.45188986E+00
-0.22603082E+00
 0.23068589E+00
-0.29662346E+00
 0.46473026E-01
-0.42526681E+00
-0.44398223E+00
-0.33627580E+00
-0.22214354E+00
 0.37490934E+00
 0.16138076E-02
-0.45906250E+00
-0.38881352E+00
 0.44958517E+00
-0.11880658E+00
 0.11992724E+00
 0.33296714E+00
 0.67777904E-01
 0.32224372E+00
 0.43286194E+00
-0.12246468E-15
-0.12246468E-15
 0.97545161E-01
 0.19134172E+00
 0.27778512E+00
 0.35355339E+00
 0.41573481E+00
 0.46193977E+00
 0.49039264E+00
 0.50000000E+00
 0.49039264E+00
 0.46193977E+00
 0.41573481E+00
 0.35355339E+00
 0.27778512E+00
 0.19134172E+00
 0.97545161E-01
-0.38285687E-15
-0.97545161E-01
-0.19134172E+00
-0.27778512E+00
-0.35355339E+00
-0.41573481E+00
-0.46193977E+00
-0.49039264E+00
-0.50000000E+00
-0.49039264E+00
-0.46193977E+00
-0.41573481E+00
-0.35355339E+00
-0.27778512E+00
-0.19134172E+00
-0.97545161E-01
 0.19134172E+00
 0.35355339E+00
 0.46193977E+00
 0.50000000E+00
 0.46193977E+00
 0.35355339E+00
 0.19134172E+00
 0.61232340E-16
-0.19134172E+00
-0.35355339E+00
-0.46193977E+00
-0.50000000E+00
-0.46193977E+00
-0.35355339E+00
-0.19134172E+00
-0.96333941E-01
-0.27859544E+00
-0.42279953E+00
-0.49953648E+00
-0.45335346E+00
-0.28857181E+00
-0.98628616E-01
 0.98628616E-01
 0.28857181E+00
 0.45335346E+00
 0.49953648E+00
 0.42279953E+00
 0.27859544E+00
 0.96333941E-01
-0.38840722E+00
-0.19120943E+00
-0.49040719E+00
-0.23845349E+00
-0.41230632E+00
-0.48913731E+00
 0.23845349E+00
 0.49040719E+00
 0.41230632E+00
 0.38840722E+00
 0.19120943E+00
 0.48913731E+00
-0.38285687E-15
-0.64361851E-01
-0.64365616E-01
 0.44381307E+00
-0.32965529E+00
-0.32966236E+00
-0.64613537E-01
 0.20209725E+00
 0.20209273E+00
 0.66361323E-01
-0.57511366E-01
-0.19867553E+00
-0.19787505E+00
-0.31808695E+00
-0.44673378E+00
 0.66360777E-01
-0.57511568E-01
-0.19788027E+00
-0.19868130E+00
-0.31810428E+00
-0.44670041E+00
-0.33025113E+00
-0.19798248E+00
-0.64613043E-01
-0.19798115E+00
-0.64612774E-01
 0.68740586E-01
 0.20220579E+00
 0.32938220E+00
 0.33605762E+00
 0.68737369E-01
 0.20219752E+00
 0.33604085E+00
 0.32933507E+00
 0.20217449E+00
 0.68776359E-01
 0.68776314E-01
 0.45071745E+00
 0.45072408E+00
 0.12630506E+00
 0.59464146E-01
 0.13583251E-02
 0.18845376E-02
-0.62795223E-01
-0.13034536E+00
-0.13121864E+00
-0.19843452E+00
-0.26852086E+00
-0.26294203E+00
-0.26370311E+00
-0.32473081E+00
-0.39280930E+00
-0.39158047E+00
-0.43981661E+00
-0.36455130E+00
-0.12386790E+00
 0.12630466E+00
 0.59463606E-01
 0.19144091E-02
 0.13435491E-02
-0.62792886E-01
-0.13124474E+00
-0.13033949E+00
-0.19845226E+00
-0.26378698E+00
-0.26295381E+00
-0.32475625E+00
-0.26845263E+00
-0.39170528E+00
-0.39264592E+00
-0.43980641E+00
-0.36453424E+00
-0.12386762E+00
-0.43977855E+00
-0.39115299E+00
-0.32955304E+00
-0.39083407E+00
-0.32950234E+00
-0.26420954E+00
-0.19784245E+00
-0.13127296E+00
-0.64578745E-01
-0.13128634E+00
-0.13130303E+00
-0.64610834E-01
-0.26419448E+00
-0.19783046E+00
-0.13130452E+00
-0.13128786E+00
-0.64611106E-01
-0.13126605E+00
-0.64575769E-01
-0.19798337E+00
-0.26431205E+00
-0.26428657E+00
 0.20659830E-02
 0.68349447E-01
 0.13384953E+00
 0.20088336E+00
 0.13523126E+00
 0.13542261E+00
 0.20197452E+00
 0.26789750E+00
 0.26871310E+00
 0.33390407E+00
 0.38125524E+00
 0.38538131E+00
 0.40869338E+00
 0.39719859E+00
 0.32265660E+00
 0.26676907E+00
 0.27100131E+00
 0.20616281E-02
 0.68343473E-01
 0.13543652E+00
 0.13529645E+00
 0.20197707E+00
 0.13383832E+00
 0.20087930E+00
 0.26875475E+00
 0.26787443E+00
 0.33382720E+00
 0.39704519E+00
 0.40868254E+00
 0.38554554E+00
 0.38099834E+00
 0.32260018E+00
 0.27110977E+00
 0.26670214E+00
 0.33451001E+00
 0.26880936E+00
 0.20214528E+00
 0.26879858E+00
 0.20214023E+00
 0.13545839E+00
 0.68767540E-01
 0.20784218E-02
 0.20804839E-02
 0.20815146E-02
 0.13545685E+00
 0.68766271E-01
 0.20816370E-02
 0.20806771E-02
 0.20787082E-02
 0.68776492E-01
 0.13546827E+00
 0.13546861E+00
-0.66116698E-01
-0.66113467E-01
-0.35927347E+00
-0.35924548E+00
-0.91740030E-01
 0.19763094E+00
 0.19764894E+00
 0.74316527E-01
-0.22024818E+00
 0.74310785E-01
-0.22022374E+00
-0.34494975E+00
-0.22891380E+00
-0.85733866E-01
-0.22822363E+00
-0.85653564E-01
 0.60681671E-01
 0.19996070E+00
 0.31488942E+00
 0.33921924E+00
 0.60697601E-01
 0.20000393E+00
 0.33935158E+00
 0.31455376E+00
 0.19919738E+00
 0.55361487E-01
 0.55414936E-01
-0.43618571E+00
-0.77685289E-01
 0.45359493E+00
 0.21190397E+00
 0.42319952E+00
 0.40384131E+00
-0.43900619E+00
-0.25361396E+00
 0.15231673E+00
-0.47113974E+00
-0.21282724E+00
-0.73579094E-01
 0.23909233E+00
 0.37971495E-01
-0.36076693E+00
 0.35447542E+00
 0.43606632E+00
 0.46271661E+00
-0.36607367E-01
 0.35245546E+00
 0.22240253E+00
-0.13538705E+00
-0.37977699E+00
-0.42024359E+00
-0.32839072E+00
-0.45674542E+00
 0.13158673E+00
-0.12431579E+00
 0.27216656E+00
 0.41722764E+00
 0.26770203E+00
-0.47527613E+00
-0.83064059E-01
-0.17453353E+00
 0.25923378E-01
-0.44797029E+00
 0.44539111E+00
-0.27236333E+00
 0.46398793E+00
 0.29994320E+00
 0.10870412E+00
 0.20000000E+00
 0.10000000E+00
 0.20000000E+00
 0.20000000E+00
 0.20000000E+00
 0.20000000E+00
 0.20000000E+00
 0.20000000E+00
 0.20000000E+00
 0.20000000E+00
 0.20000000E+00
 0.20000000E+00
 0.20000000E+00
 0.20000000E+00
 0.20000000E+00
 0.20000000E+00
 0.20000000E+00
 0.20000000E+00
 0.20000000E+00
 0.20000000E+00
 0.20000000E+00
 0.20000000E+00
 0.20000000E+00
 0.20000000E+00
 0.20000000E+00
 0.20000000E+00
 0.20000000E+00
 0.20000000E+00
 0.20000000E+00
 0.20000000E+00
 0.20000000E+00
 0.20000000E+00
 0.20000000E+00
 0.10000000E+00
 0.10000000E+00
 0.10000000E+00
 0.10000000E+00
 0.10000000E+00
 0.10000000E+00
 0.10000000E+00
 0.10000000E+00
 0.10000000E+00
 0.10000000E+00
 0.10000000E+00
 0.10000000E+00
 0.10000000E+00
 0.10000000E+00
 0.10000000E+00
 0.15488935E+00
 0.15488935E+00
 0.15408701E+00
 0.16433076E+00
 0.16433076E+00
 0.15408701E+00
 0.15488935E+00
 0.15488935E+00
 0.15408701E+00
 0.16433076E+00
 0.16433076E+00
 0.15408701E+00
 0.15488935E+00
 0.15488935E+00
 0.16426127E+00
 0.16883511E+00
 0.16194294E+00
 0.16426127E+00
 0.15406382E+00
 0.15406382E+00
 0.16426127E+00
 0.16194294E+00
 0.15406382E+00
 0.16426127E+00
 0.16883511E+00
 0.15406382E+00
 0.16883511E+00
 0.20000000E+00
 0.20000000E+00
 0.20000000E+00
 0.20000000E+00
 0.20000000E+00
 0.20000000E+00
 0.20000000E+00
 0.20000000E+00
 0.20000000E+00
 0.20000000E+00
 0.20000000E+00
 0.20000000E+00
 0.20000000E+00
 0.20000000E+00
 0.20000000E+00
 0.20000000E+00
 0.20000000E+00
 0.20000000E+00
 0.20000000E+00
 0.20000000E+00
 0.20000000E+00
 0.20000000E+00
 0.20000000E+00
 0.20000000E+00
 0.20000000E+00
 0.20000000E+00
 0.20000000E+00
 0.20000000E+00
 0.20000000E+00
 0.20000000E+00
 0.20000000E+00
 0.20000000E+00
 0.20000000E+00
 0.20000000E+00
 0.20000000E+00
 0.20000000E+00
 0.20000000E+00
 0.20000000E+00
 0.20000000E+00
 0.20000000E+00
 0.20000000E+00
 0.20000000E+00
 0.20000000E+00
 0.20000000E+00
 0.20000000E+00
 0.20000000E+00
 0.20000000E+00
 0.20000000E+00
 0.20000000E+00
 0.20000000E+00
 0.20000000E+00
 0.20000000E+00
 0.20000000E+00
 0.20000000E+00
 0.20000000E+00
 0.20000000E+00
 0.20000000E+00
 0.20000000E+00
 0.20000000E+00
 0.20000000E+00
 0.20000000E+00
 0.20000000E+00
 0.20000000E+00
 0.20000000E+00
 0.20000000E+00
 0.20000000E+00
 0.20000000E+00
 0.20000000E+00
 0.20000000E+00
 0.20000000E+00
 0.20000000E+00
 0.20000000E+00
 0.20000000E+00
 0.20000000E+00
 0.20000000E+00
 0.20000000E+00
 0.20000000E+00
 0.20000000E+00
 0.20000000E+00
 0.20000000E+00
 0.20000000E+00
 0.20000000E+00
 0.20000000E+00
 0.20000000E+00
 0.20000000E+00
 0.20000000E+00
 0.20000000E+00
 0.20000000E+00
 0.20000000E+00
 0.20000000E+00
 0.20000000E+00
 0.20000000E+00
 0.20000000E+00
 0.20000000E+00
 0.20000000E+00
 0.20000000E+00
 0.20000000E+00
 0.20000000E+00
 0.20000000E+00
 0.20000000E+00
 0.20000000E+00
 0.20000000E+00
 0.20000000E+00
 0.20000000E+00
 0.20000000E+00
 0.20000000E+00
 0.20000000E+00
 0.20000000E+00
 0.20000000E+00
 0.20000000E+00
 0.20000000E+00
 0.20000000E+00
 0.20000000E+00
 0.20000000E+00
 0.20000000E+00
 0.20000000E+00
 0.20000000E+00
 0.20000000E+00
 0.20000000E+00
 0.20000000E+00
 0.20000000E+00
 0.20000000E+00
 0.20000000E+00
 0.20000000E+00
 0.20000000E+00
 0.20000000E+00
 0.20000000E+00
 0.20000000E+00
 0.20000000E+00
 0.20000000E+00
 0.20000000E+00
 0.20000000E+00
 0.20000000E+00
 0.20000000E+00
 0.20000000E+00
 0.20000000E+00
 0.20000000E+00
 0.20000000E+00
 0.20000000E+00
 0.20000000E+00
 0.20000000E+00
 0.20000000E+00
 0.20000000E+00
 0.20000000E+00
 0.20000000E+00
 0.20000000E+00
 0.10000000E+00
 0.10000000E+00
 0.10000000E+00
 0.10000000E+00
 0.10000000E+00
 0.10000000E+00
 0.10000000E+00
 0.10000000E+00
 0.10000000E+00
 0.10000000E+00
 0.10000000E+00
 0.10000000E+00
 0.10000000E+00
 0.10000000E+00
 0.10000000E+00
 0.10000000E+00
 0.10000000E+00
 0.10000000E+00
 0.10000000E+00
 0.10000000E+00
 0.10000000E+00
 0.10000000E+00
 0.10000000E+00
 0.10000000E+00
 0.10000000E+00
 0.10000000E+00
 0.10000000E+00
 0.15816205E+00
 0.14265201E+00
 0.16359563E+00
 0.15974071E+00
 0.13623922E+00
 0.14880540E+00
 0.15718919E+00
 0.14835416E+00
 0.17356189E+00
 0.17317435E+00
 0.17821027E+00
 0.14572924E+00
 0.13624047E+00
 0.16868387E+00
 0.17570507E+00
 0.14751912E+00
 0.17125318E+00
 0.17360095E+00
 0.17158551E+00
 0.14780287E+00
 0.17658450E+00
 0.17734753E+00
 0.14858657E+00
 0.18101944E+00
 0.15689327E+00
 0.16790333E+00
 0.14485015E+00
 0.17013211E+00
 0.14712375E+00
 0.17254748E+00
 0.17392760E+00
 0.18080250E+00
 0.17242436E+00
 0.15473351E+00
 0.15117301E+00
 0.12699986E+00
 0.16965405E+00
 0.14865210E+00
 0.16087923E+00
 0.14836043E+00
 0.13786115E+00
tetra4
       840
         1
         2
         3
         4
         5
         6
         7
         8
         9
        10
        11
        12
        13
        14
        15
        16
        17
        18
        19
        20
        21
        22
        23
        24
        25
        26
        27
        28
        29
        30
        31
        32
        33
        34
        35
        36
        37
        38
        39
        40
        41
        42
        43
        44
        45
        46
        47
        48
        49
        50
        51
        52
        53
        54
        55
        56
        57
        58
        59
        60
        61
        62
        63
        64
        65
        66
        67
        68
        69
        70
        71
        72
        73
        74
        75
        76
        77
        78
        79
        80
        81
        82
        83
        84
        85
        86
        87
        88
        89
        90
        91
        92
        93
        94
        95
        96
        97
        98
        99
       100
       101
       102
       103
       104
       105
       106
       107
       108
       109
       110
       111
       112
       113
       114
       115
       116
       117
       118
       119
       120
       121
       122
       123
       124
       125
       126
       127
       128
       129
       130
       131
       132
       133
       134
       135
       136
       137
       138
       139
       140
       141
       142
       143
       144
       145
       146
       147
       148
       149
       150
       151
       152
       153
       154
       155
       156
       157
       158
       159
       160
       161
       162
       163
       164
       165
       166
       167
       168
       169
       170
       171
       172
       173
       174
       175
       176
       177
       178
       179
       180
       181
       182
       183
       184
       185
       186
       187
       188
       189
       190
       191
       192
       193
       194
       195
       196
       197
       198
       199
       200
       201
       202
       203
       204
       205
       206
       207
       208
       209
       210
       211
       212
       213
       214
       215
       216
       217
       218
       219
       220
       221
       222
       223
       224
       225
       226
       227
       228
       229
       230
       231
       232
       233
       234
       235
       236
       237
       238
       239
       240
       241
       242
       243
       244
       245
       246
       247
       248
       249
       250
       251
       252
       253
       254
       255
       256
       257
       258
       259
       260
       261
       262
       263
       264
       265
       266
       267
       268
       269
       270
       271
       272
       273
       274
       275
       276
       277
       278
       279
       280
       281
       282
       283
       284
       285
       286
       287
       288
       289
       290
       291
       292
       293
       294
       295
       296
       297
       298
       299
       300
       301
       302
       303
       304
       305
       306
       307
       308
       309
       310
       311
       312
       313
       314
       315
       316
       317
       318
       319
       320
       321
       322
       323
       324
       325
       326
       327
       328
       329
       330
       331
       332
       333
       334
       335
       336
       337
       338
       339
       340
       341
       342
       343
       344
       345
       346
       347
       348
       349
       350
       351
       352
       353
       354
       355
       356
       357
       358
       359
       360
       361
       362
       363
       364
       365
       366
       367
       368
       369
       370
       371
       372
       373
       374
       375
       376
       377
       378
       379
       380
       381
       382
       383
       384
       385
       386
       387
       388
       389
       390
       391
       392
       393
       394
       395
       396
       397
       398
       399
       400
       401
       402
       403
       404
       405
       406
       407
       408
       409
       410
       411
       412
       413
       414
       415
       416
       417
       418
       419
       420
       421
       422
       423
       424
       425
       426
       427
       428
       429
       430
       431
       432
       433
       434
       435
       436
       437
       438
       439
       440
       441
       442
       443
       444
       445
       446
       447
       448
       449
       450
       451
       452
       453
       454
       455
       456
       457
       458
       459
       460
       461
       462
       463
       464
       465
       466
       467
       468
       469
       470
       471
       472
       473
       474
       475
       476
       477
       478
       479
       480
       481
       482
       483
       484
       485
       486
       487
       488
       489
       490
       491
       492
       493
       494
       495
       496
       497
       498
       499
       500
       501
       502
       503
       504
       505
       506
       507
       508
       509
       510
       511
       512
       513
       514
       515
       516
       517
       518
       519
       520
       521
       522
       523
       524
       525
       526
       527
       528
       529
       530
       531
       532
       533
       534
       535
       536
       537
       538
       539
       540
       541
       542
       543
       544
       545
       546
       547
       548
       549
       550
       551
       552
       553
       554
       555
       556
       557
       558
       559
       560
       561
       562
       563
       564
       565
       566
       567
       568
       569
       570
       571
       572
       573
       574
       575
       576
       577
       578
       579
       580
       581
       582
       583
       584
       585
       586
       587
       588
       589
       590
       591
       592
       593
       594
       595
       596
       597
       598
       599
       600
       601
       602
       603
       604
       605
       606
       607
       608
       609
       610
       611
       612
       613
       614
       615
       616
       617
       618
       619
       620
       621
       622
       623
       624
       625
       626
       627
       628
       629
       630
       631
       632
       633
       634
       635
       636
       637
       638
       639
       640
       641
       642
       643
       644
       645
       646
       647
       648
       649
       650
       651
       652
       653
       654
       655
       656
       657
       658
       659
       660
       661
       662
       663
       664
       665
       666
       667
       668
       669
       670
       671
       672
       673
       674
       675
       676
       677
       678
       679
       680
       681
       682
       683
       684
       685
       686
       687
       688
       689
       690
       691
       692
       693
       694
       695
       696
       697
       698
       699
       700
       701
       702
       703
       704
       705
       706
       707
       708
       709
       710
       711
       712
       713
       714
       715
       716
       717
       718
       719
       720
       721
       722
       723
       724
       725
       726
       727
       728
       729
       730
       731
       732
       733
       734
       735
       736
       737
       738
       739
       740
       741
       742
       743
       744
       745
       746
       747
       748
       749
       750
       751
       752
       753
       754
       755
       756
       757
       758
       759
       760
       761
       762
       763
       764
       765
       766
       767
       768
       769
       770
       771
       772
       773
       774
       775
       776
       777
       778
       779
       780
       781
       782
       783
       784
       785
       786
       787
       788
       789
       790
       791
       792
       793
       794
       795
       796
       797
       798
       799
       800
       801
       802
       803
       804
       805
       806
       807
       808
       809
       810
       811
       812
       813
       814
       815
       816
       817
       818
       819
       820
       821
       822
       823
       824
       825
       826
       827
       828
       829
       830
       831
       832
       833
       834
       835
       836
       837
       838
       839
       840
       243       203       191       106
         3       283         1       115
       268       108       245       203
        55       267       281       250
        80       126       224       125
        11       251       265        70
        16        40        69       252
       289       229       114       193
        77       120       223       119
        11       265        12        70
        70       251        10        11
       231       132       134        90
       285       254       253        36
       237       120       223       166
       112        78        10       266
        18        19        75       267
       230       120       223       237
       289       283         3       115
       142       256        93       138
       237       165       120       166
        59       251        10        70
        83       194       195       228
        83       209       206       228
       271        53       249        24
        53       249        44       271
       228       189       190       191
        16       252        69        15
       237       165       166       100
       243       191       190       106
       140       138       232       256
       109       220       246       221
       228       191       190       243
       181        38       278       265
       210       189       105       242
       211       237       166       100
       192       193       229       243
       289         3       114       115
        45        46       224       255
       181       278        38       264
       261       279       288       202
       243       193       229        34
       183       241       197       204
       255       127       224       151
       247       246       209       228
       221       246       209       247
       206       246       209       221
       172       174       239       102
       107       204       244       205
        42        43       232       256
       228       246       209       206
       255       224       233       151
        68        27        28       255
       264       181       278       180
       194       195       245       196
       215       218       238       248
       248       218       238       235
       202       243       193       106
         4       269        73       257
        92       232       154       139
       139       232       154       234
       139       153       225       234
       273       141        94       146
       185       240       277       264
        38        71       264       278
       257        34       269        73
       231       275       132       131
       286       230       123       121
       210       209       189       228
       144       143       145       225
       211       210       242       247
        20        55        19       276
       178       241       207       246
       202       279       288         6
       276        55        19       281
       286       123       122       121
        98       159       157       235
       235       218       156        98
       286       122        86       121
       262       134        18       267
       265       251       182       241
       242       117       229       188
       243       261       288       202
         2       229       283       289
       230       125        47       286
       187       117       223       242
       194       246       244       228
        76       222       170       156
       187       117       242       188
       155       157       154       235
       125       224        47        46
        31        64        50       259
        59         9        10       266
       231       131       132        90
       286       230       125       123
        60         8        36       254
        62        73        34       257
       189       190       105       242
       201       288         6       202
       225       143        79       144
       286       125        88       123
       289       229       283       115
        74        37       253       287
        48       130       119        86
       260       118       223       119
       235       226       157       234
       187       223       117        77
       271       273       141       232
       243       190       192       106
        48        49         2       260
       269        34       193       261
       159       158       226        81
       289       114       257       193
        33       270        49        64
       123       121       230        87
        87       161       165       230
       228       242       189       210
       137       282        93       147
       155       232       154        92
       242       190       192       243
       255        89       128       127
       215       218       101       238
       110       212       213       247
       210       242       105       211
       235       232       154       155
       139        92       232       140
       289        62        34       257
       273        67        43       271
       262        18        75       267
       268       245       288       203
       248       216       217       159
       148        95       149       233
       225       150       149       233
       289         3        62       257
       227       174       238       175
        32       270        64       259
       282       137       232       222
        79       150       143       225
       259       270        64        48
       251       265        70        38
       264       184        14       277
       138       232       136        92
       110       210       212       247
       151       127       224       152
        70        58       265        12
       255       128       126       127
       274       233       148       151
       164       226       163       162
       169        97       167       234
       168        96       233       152
       163       236       226       237
       101       218       170       238
       110       209       247       221
       251       113       183        78
        59        37       251        70
       134       133       222       231
       260       223        48       119
       137       232       136       138
       225       143       149       150
       140       232       138        92
       125       224       230        47
       231        90       172       131
       235       136       232       155
       235       136       155       156
       133       222       170        76
       203       201       202       288
       139        79       141       225
       107       197       244       204
        29        63        51       263
       140       232       273       256
       160        99       236       168
       151       149        96       233
        71        38       264        39
       254       198       244       196
        64       270        49        48
       114       193       229       192
         8         7       254        60
       191       245       203       243
       205       204       244       246
       196       245       108       195
       167       236        99       168
       124       236       161       230
       162       236        99       167
       172       171        90       231
       121       230       119        86
       228       210       209       247
       238       171       172       231
       231       171       133       238
       247       210       212       211
       162       226       236       167
       247       216       219       248
        81       226       213       164
       140       273       142       256
       256       282        93       138
       264        14        39       277
       125       124       224        80
        42       232       282       256
       185       240       103       177
       289       114       229       115
       216       213       226       247
        84       192       229       188
        76       222       136       137
       167       226       236       234
        81       213       226       216
       163       236        99       162
       139       153        79       225
       121       120       230        87
       237       161       165       163
       234       150       233       169
        73        61       269         5
       242       189       190       228
       243       242       190       228
       203       202       243       288
       116       223       283       260
        77       119       223       118
       156       222       170       238
       106       193       192       243
       163       161       236       237
       224       236       233       152
       247       219       213       110
        80       124       224       160
       246       204       207       205
       119       120       223       230
       266       197        78       183
       196       198       244       107
       187       105       242       211
       275       262        41       231
       109       246       207       205
       125        47        51        46
       145       225       143        95
       248       214       246       227
       178       207       208       246
       238       174       101       175
       247       210       209       110
       109       246       206       221
        48       230        47       286
        41       231        40       275
       203       243       245       288
       266         9       112       287
       101       171       174       238
       118       223       116       260
        38       278        58        71
       282       256       232       138
        67        44        43       271
       112         9       285       287
        70        38       265        58
       181       278        12       265
       282       137        93       138
       111       219       216       248
       215       217       218       248
       250       147       276       282
       164       237       226       247
       250        91       281       276
       111       217       215       248
       111       216       217       248
       109       208       246       220
       238       171       174       172
       232       222       136       235
       185       277       184       264
       185       184       103       264
        66        21        54       256
       185       103       240       264
       279        61         6         5
       271        23       146       273
       163       161        99       236
       288         6       279        61
       178       240       241       227
        91       147       276       250
       234       232       154       235
       204       241       197       244
       250       222       135       137
       246       207       208       109
        98       155       156       235
       134       262       132       231
        76       135       222       137
       177       176       240       227
       125        51       272        46
       262       134        41       231
       112       285       253       287
       130       270       260        33
       273        22        23       146
        32        64        31       259
       275       131       231       172
        80       126       127       224
       262        75        41       267
       137       282       232       138
       282       232        42       222
       188       117       229        84
       188       105       242       187
       228       194       206        83
       264        71        39        14
        41       250        55        42
       228       195       245       194
       114       192       229        84
        85       130       118       260
        29        28       272        51
       115       283         1       116
        97       154       157       234
       238       222       170       133
       169        96       233       168
       135       133       222       134
       250       276        42       282
       181       179       103       240
       240       179       103       177
       240       241       179       178
       177       240       179       178
       269       193       279       261
       225       150       153        79
       234       150       225       233
       274       148        89       151
        95       225       149       233
        96       149       150       233
        30        63       263        47
       104       204       241       183
       194       244       245       228
       271       146       141       273
        72        35         6       268
       243        35       245       288
       152        96       233       151
       140       141       232       139
       235       155       157        98
        73        34       269        61
        36       244       245       254
       251       241        37       183
       234       158       157        97
       265        38       251       241
       268       288       201       203
         3         4        73       257
       240       239       277        39
        60         7       254       268
       259        64        50        48
       102       174       239       176
        81       162       226       164
       107       194       244       196
       228       245       191       243
       102       176       239       185
       242       223       166       237
       228       209       189        83
        12        13        58       278
       116       229       117        84
       157       226       158       234
       234       150       153       225
       198       197       244       107
        87       124       230       123
       242       237       166       211
       187       242       166       211
       283       289         3        62
       227       214        82       175
       223       283       229       116
       123       124       230       125
        36       268        35        60
       201       108       200       268
       175       174       176       227
        68       274        45        52
       268       201       108       203
       166       120       223        77
       108       199       200       268
       134       231       222        41
       286        31        30        50
       199       108       245       268
       134        90       133       231
       240       176       239       227
       196       244       245       194
       273       256        22       142
        53        44        67       271
       173       252       275        16
       169       150       153       234
       273        94        22       146
       111       214       220       248
        22        43       273        67
       175       176        82       227
        52        65       258        45
        14       277        15        57
       106       243       203       202
       277       173       239       102
       234        97       153       169
       164       226       213       247
       277       184       186       185
       267        19        75        55
        80       224       127       152
       225        45       233        95
       104       179       241       178
       268        72        35        60
       238       218       170       156
       284       258        65        45
       234       158        97       167
       139       225       232       234
       219       213       216       247
       237       226       163       164
       199       254       200       268
       228       189       191        83
       247       212       213       164
        87       165       120       230
       227       208       246       178
       169       167       168       234
       264       240       181       103
       115       229       283       116
       227       215       238       248
       285       253        74        36
       254       199       245       268
       195       245       203       191
       253       244       198       197
       251        70        37        38
         2        62        34       289
       253       198       112       197
       266        78       251       183
       176       174       239       227
       152       236       233       168
        15        69        57       252
       151       224       233       152
       227       176        82       177
       287       285       253        74
       220       208       246       214
       234       233       236       168
       234       226       158       167
       245       268        35        36
       177       178        82       227
       247       237       212       164
       104       241       207       178
       220       214       246       248
       206       246       194       228
       238       172       239       231
       164       237       212       100
       211       237       212       247
       100       237       212       211
       169       168       233       234
       183       182       241       104
        51        63        47       263
       242       190       105       188
       228       245       195       191
       247       210       242       228
       104       207       241       204
       115       229       116        84
        87       124       161       230
       227       215       214       175
       248       215       214       227
       148       149       151       233
       111       215       214       248
       152       236       168       160
       275       231       239       172
       188       190       192       242
       230       165       120       237
       160       236       224       152
       247       237       242       211
       283         3         1        62
       230        48       223       119
        26       274        52       280
        66        54        42       256
       234       236       167       168
       230       119        86        48
        53        67        23       271
       249        65       258        25
       223         2       229       283
       256        54        43        22
       173       172       239       102
       193       269       279         5
       230       124       236       224
        77       223       166       187
       167       226       158       162
       248       246       219       247
       152       224       160        80
       206       246       205       194
       244       241       197        37
       220       246       219       248
       247       246       219       221
       221       246       219       220
       159       226       216        81
       245       254       268        36
       248       226       216       159
       248       216       226       247
       100       237       163       164
       248       226       159       235
       225        79       141       144
       274        89        27       255
       240       241        38       181
        52       274        27        68
       159       226       158       157
       156       222       238       235
       250       135       147       137
       238       222       133       231
       277        57        40       252
       159       226       157       235
       262        17       132       275
       230       161       165       237
       178       241       246       227
        92       232       136       155
       265       182       181       241
       249        53        65        24
       277       239       185       102
        36       254       268        60
       237       161       236       230
       286        30        47        50
       236       161        99       160
       124       161       236       160
       266       251        37       183
       171       170       133       238
        37       241       197       183
       107       205       244       194
       205       246       244       194
       242       192       229       243
       268       245        35       288
       188       192       229       242
       287        37       266        59
       125       124       230       224
       137       222       136       232
       257        62        73         3
       156       222       136        76
       237       163       165       100
         5       269        73         4
        57       252        69        40
       260        49         2         1
        33       270        64        32
       147       276       282        20
       125       126       224        46
       263       129       125       272
       263       125        51       272
        41        40        56       275
       118       223       117       116
       262        75        56        41
        26        65        25       258
        17        75        56       262
       233       150        96       169
       182       241       179       181
       286        88       122       123
        57        40        39       277
        76       133       222       135
       215       238       101       175
        95       143       149       225
       148        45        95       233
       256        21        54        22
       287       266         9        59
        74         9       285         8
         1        49        33       260
       140       142       138       256
       104       241       179       182
        71        13       264       278
       277        15        57       252
       235       217       218        98
       223       117       229       242
       238       174       239       172
       185       176       239       240
       280       274        52        45
       288       279       261        61
       110       247       219       221
       246       244       241       204
        82       208       214       227
       181       241       179       240
       227       178       240       177
        81       158       226       162
       162       236       226       163
       267        41       134       250
       223       229       117       116
        30       263        88       286
        65       249        44        53
       255        46        28        68
        40       239        39       277
        51        28       272        46
        16       275        56        40
        41        75        55       267
       248       217       218       235
       204       207       241       246
       118       260       116        85
        77       223       117       118
       255       128        28       126
        91        19       267       281
       254       244       245       196
       262        41       134       267
       197        78       112       266
       235       217       159       248
       286       122        31        86
       121       120       119       230
        17        75       262        18
         2        34       229       289
        16        17        56       275
       234       154       153        97
       235       222       136       156
       287         9       285        74
       214       208       246       227
        83       195       191       228
       178       208        82       227
       235       218       238       156
        98       217       159       235
       271       141       225       232
        60       268        72         7
       175       215       238       227
        30        63        29       263
       197       253        37       266
       125       263        47       286
        26       274        27        52
       253       197       112       266
        30       122        31       286
        51        47       125       263
       276        55        42        20
       250       135       222       134
        90       171       133       231
       238       171       170       101
       258        45        95       280
       235       157       154       234
       264        13        71        14
       185       176       240       177
       111       220       219       248
       258        95        26       280
         6       268         7        72
       250       222        41       134
       276       250        55       281
       199       245       108       196
       139       141       232       225
       109       246       205       206
       139       154       153       234
       273       142        94       140
        42       250        55       276
       276       281        19        91
        26        65       258        52
       227       174       239       238
       224       124       236       160
       284       249        44        65
       114        84       229       115
       187       223       166       242
       203       108       245       195
       253        36        37        74
       286       122        88        30
        45        68        46       255
        45        65       284        44
        42        54        43       256
        93        21        20       282
       251        37       241        38
       261        35        61        34
       144       249       145        24
       271       249       144        24
       271       144        23        24
        55       250        41       267
       225       249       145       144
       267       134        91       250
        41       222       250        42
       250       147       282       137
       250        42       222       282
       250        91       135       134
        11       113       182       251
       251       113        10        11
        59       266        10       251
       251       113       182       183
        59        37       266       251
       251       182       241       183
       253       287        37       266
        16       173       252        15
         5       269       279        61
       287       253       112       266
        36       244       254       253
       277       252        40       239
       253        37       244       197
       244        36        37       253
       254       200         8       199
        21        93       256       282
         8         7       200       254
       259        31        86       286
        21        66        20       282
        28       272       255       126
       255        27        28       128
       255       126       224       127
       128        27        89       255
       255        46       224       126
       256        22        43       273
        93        21       256       142
       252       277       173       239
       256        43       232       273
       142        21       256        22
         4       193       257       114
       289       257        34       193
       289        34       229       193
         3         4       257       114
       289       114         3       257
        95       145       258        25
       145        95       258       225
       258        26        52       280
       225        95       258        45
        26       258        25        95
       258        52        45       280
        16       252       275        40
        32       130       259        86
        86       130       259        48
        32       259        31        86
       259        86        48       286
       260        48       130       119
        48       260         2       223
       260       130       118       119
        66        21       256       282
       223       260         2       283
       261        34       193       243
       202       261       193       243
       243       261        35       288
       243        35       261        34
        18       262       132       134
       262        41        56       275
       262        56        17       275
        66        42        20       282
        17       262       132        18
       263        51        29       272
       129        88       263       125
       263        29       129       272
       129       263        88        30
        30       263        29       129
       264        38       240        39
       264       181       180       103
       181        38       240       264
       264        39       240       277
       264       180       184       103
       286        86       230       121
       249       258       145        25
         8       254       198       285
        65       249       258       284
        11       251       182       265
        11       182        12       265
       265       181        38       241
       265        12        58       278
       265        58        38       278
        10       251       266        78
       266        37       197       183
        10        78       113       251
       252       275        40       239
        18        19       267        91
       134        18       267        91
       267        91       281       250
       281        19       267        55
       275       252       173       239
       254       245       199       196
       254       253       198       285
       112         9       198       285
       254       199       198       196
         8       199       198       254
       201       200         6       268
        42        66       256       282
         6       200         7       268
        33       270       260        49
       254         7       200       268
         4       193       269       257
       257        34       193       269
       269       279        61       261
       269        61        34       261
         5       193       269         4
        26       280        95       148
        14        57        39       277
       280        45        95       148
       148       274       280        45
        26       274       280       148
        32       130       270       259
       259       130       270        48
       254       244       198       253
        33       130       270        32
       286        47        48        50
         1       260        33        85
       283         1         2        62
       283         2       289        62
       260        48        49       270
       285         9       198         8
        48       260       130       270
       112       198       253       285
       144       146       271        23
       271       141       146       144
       225       144       141       271
       271        23        53        24
       225       249       144       271
       284       249       258       225
       262       275       132       231
        71        58        13       278
       264        14       184       180
       148       274        45       233
       180        13       264        14
       285         8       254        36
       181        12       182       265
       263       125        88       286
       263        30        47       286
       125       272       126        46
        29        28       126       272
       125       126       272       129
        29       272       126       129
        46       272       255        28
       285        74         8        36
       286        48       230        86
       275       231        40       239
       259        48        50       286
       273        94       141       140
       273        22        67        23
        23        67       273       271
       273        22        94       142
       273       141       232       140
       274        27        68       255
        26        89       274       148
       274        68        45       255
       274        89       255       151
        26        89        27       274
        17       132       275       131
        45       284       225        44
       274       255        45       233
       225       249        44       284
        16        17       275       131
       283       260         2         1
       277       173        15       252
        44       225       271       249
       126       272       255        46
       274       255       233       151
       271       225        43       232
       271        43       273       232
       271        44        43       225
       225       258       284        45
       147        20       282        93
       173       275       131        16
       255       224        45       233
       268        35         6       288
       268         6       201       288
       275       239       173       172
        20       276        19       147
       147       276        19        91
        91       250       135       147
        20       276       282        42
        85       130       260        33
       250       282       222       137
       260       283       116         1
       260       116        85         1
       249       145        24        25
       249        24        65        25
       258       249       145       225
       275       173       131       172
       266         9        10       112
       255        89       127       151
       287         9        74        59
       287        74        37        59
       277       185       186       102
       277       186       184        14
       277       239       240       185
       277       186       173       102
        14       186        15       277
       277       186        15       173
       181        12       278       180
        12        13       278       180
       259        50        31       286
       180        13       278       264
       202       279         6         5
       288       261        35        61
       202       279       193       261
         5       279       193       202
       288        35         6        61
