GiD Post Results File 1.0
 
Result VELOC ALYA  0.00000000E+00 Vector OnNodes
ComponentNames VELOC_X,VELOC_Y,VELOC_Z
Values
        1  0.00000000E+000  0.00000000E+000
        2  0.00000000E+000  0.00000000E+000
        3  0.00000000E+000  0.00000000E+000
        4  0.00000000E+000  0.00000000E+000
        5  0.00000000E+000  0.00000000E+000
        6  0.00000000E+000  0.00000000E+000
        7  0.00000000E+000  0.00000000E+000
        8  0.00000000E+000  0.00000000E+000
        9  0.00000000E+000  0.00000000E+000
       10  0.00000000E+000  0.00000000E+000
       11  0.00000000E+000  0.00000000E+000
       12  0.00000000E+000  0.00000000E+000
       13  0.00000000E+000  0.00000000E+000
       14  0.00000000E+000  0.00000000E+000
       15  0.00000000E+000  0.00000000E+000
       16  0.00000000E+000  0.00000000E+000
       17  0.00000000E+000  0.00000000E+000
       18  0.00000000E+000  0.00000000E+000
       19  0.00000000E+000  0.00000000E+000
       20  0.00000000E+000  0.00000000E+000
       21  0.00000000E+000  0.00000000E+000
       22  0.00000000E+000  0.00000000E+000
       23  0.00000000E+000  0.00000000E+000
       24  0.00000000E+000  0.00000000E+000
       25  0.00000000E+000  0.00000000E+000
       26  0.00000000E+000  0.00000000E+000
       27  0.00000000E+000  0.00000000E+000
       28  0.00000000E+000  0.00000000E+000
       29  0.00000000E+000  0.00000000E+000
       30  0.00000000E+000  0.00000000E+000
       31  0.00000000E+000  0.00000000E+000
       32  0.00000000E+000  0.00000000E+000
       33  0.00000000E+000  0.00000000E+000
       34  0.00000000E+000  0.00000000E+000
       35  0.00000000E+000  0.00000000E+000
       36  0.00000000E+000  0.00000000E+000
       37  0.00000000E+000  0.00000000E+000
       38  0.00000000E+000  0.00000000E+000
       39  0.00000000E+000  0.00000000E+000
       40  0.00000000E+000  0.00000000E+000
       41  0.00000000E+000  0.00000000E+000
       42  0.00000000E+000  0.00000000E+000
       43  0.00000000E+000  0.00000000E+000
       44  0.00000000E+000  0.00000000E+000
       45  0.00000000E+000  0.00000000E+000
       46  0.00000000E+000  0.00000000E+000
       47  0.00000000E+000  0.00000000E+000
       48  0.00000000E+000  0.00000000E+000
       49  0.00000000E+000  0.00000000E+000
       50  0.00000000E+000  0.00000000E+000
       51  0.00000000E+000  0.00000000E+000
       52  0.00000000E+000  0.00000000E+000
       53  0.00000000E+000  0.00000000E+000
       54  0.00000000E+000  0.00000000E+000
       55  0.00000000E+000  0.00000000E+000
       56  0.00000000E+000  0.00000000E+000
       57  0.00000000E+000  0.00000000E+000
       58  0.00000000E+000  0.00000000E+000
       59  0.00000000E+000  0.00000000E+000
       60  0.00000000E+000  0.00000000E+000
       61  0.00000000E+000  0.00000000E+000
       62  0.00000000E+000  0.00000000E+000
       63  0.00000000E+000  0.00000000E+000
       64  0.00000000E+000  0.00000000E+000
       65  0.00000000E+000  0.00000000E+000
       66  0.00000000E+000  0.00000000E+000
       67  0.00000000E+000  0.00000000E+000
       68  0.00000000E+000  0.00000000E+000
       69  0.00000000E+000  0.00000000E+000
       70  0.00000000E+000  0.00000000E+000
       71  0.00000000E+000  0.00000000E+000
       72  0.00000000E+000  0.00000000E+000
       73  0.00000000E+000  0.00000000E+000
       74  0.00000000E+000  0.00000000E+000
       75  0.00000000E+000  0.00000000E+000
       76  0.00000000E+000  0.00000000E+000
       77  0.00000000E+000  0.00000000E+000
       78  0.00000000E+000  0.00000000E+000
       79  0.00000000E+000  0.00000000E+000
       80  0.00000000E+000  0.00000000E+000
       81  0.00000000E+000  0.00000000E+000
       82  0.00000000E+000  0.00000000E+000
       83  0.00000000E+000  0.00000000E+000
       84  0.00000000E+000  0.00000000E+000
       85  0.00000000E+000  0.00000000E+000
       86  0.00000000E+000  0.00000000E+000
       87  0.00000000E+000  0.00000000E+000
       88  0.00000000E+000  0.00000000E+000
       89  0.00000000E+000  0.00000000E+000
       90  0.00000000E+000  0.00000000E+000
       91  0.00000000E+000  0.00000000E+000
       92  0.10000000E+001  0.00000000E+000
       93  0.10000000E+001  0.00000000E+000
       94  0.00000000E+000  0.00000000E+000
       95  0.00000000E+000  0.00000000E+000
       96  0.00000000E+000  0.00000000E+000
       97  0.00000000E+000  0.00000000E+000
       98  0.10000000E+001  0.00000000E+000
       99  0.00000000E+000  0.00000000E+000
      100  0.00000000E+000  0.00000000E+000
      101  0.00000000E+000  0.00000000E+000
      102  0.10000000E+001  0.00000000E+000
      103  0.00000000E+000  0.00000000E+000
      104  0.00000000E+000  0.00000000E+000
      105  0.00000000E+000  0.00000000E+000
      106  0.10000000E+001  0.00000000E+000
      107  0.00000000E+000  0.00000000E+000
      108  0.00000000E+000  0.00000000E+000
      109  0.00000000E+000  0.00000000E+000
      110  0.10000000E+001  0.00000000E+000
      111  0.00000000E+000  0.00000000E+000
      112  0.00000000E+000  0.00000000E+000
      113  0.00000000E+000  0.00000000E+000
      114  0.00000000E+000  0.00000000E+000
      115  0.10000000E+001  0.00000000E+000
      116  0.00000000E+000  0.00000000E+000
      117  0.10000000E+001  0.00000000E+000
      118  0.00000000E+000  0.00000000E+000
      119  0.10000000E+001  0.00000000E+000
      120  0.00000000E+000  0.00000000E+000
      121  0.00000000E+000  0.00000000E+000
End values
Result PRESS ALYA  0.00000000E+00 Scalar OnNodes
ComponentNames PRESS
Values
        1  0.00000000E+000
        2  0.00000000E+000
        3  0.00000000E+000
        4  0.00000000E+000
        5  0.00000000E+000
        6  0.00000000E+000
        7  0.00000000E+000
        8  0.00000000E+000
        9  0.00000000E+000
       10  0.00000000E+000
       11  0.00000000E+000
       12  0.00000000E+000
       13  0.00000000E+000
       14  0.00000000E+000
       15  0.00000000E+000
       16  0.00000000E+000
       17  0.00000000E+000
       18  0.00000000E+000
       19  0.00000000E+000
       20  0.00000000E+000
       21  0.00000000E+000
       22  0.00000000E+000
       23  0.00000000E+000
       24  0.00000000E+000
       25  0.00000000E+000
       26  0.00000000E+000
       27  0.00000000E+000
       28  0.00000000E+000
       29  0.00000000E+000
       30  0.00000000E+000
       31  0.00000000E+000
       32  0.00000000E+000
       33  0.00000000E+000
       34  0.00000000E+000
       35  0.00000000E+000
       36  0.00000000E+000
       37  0.00000000E+000
       38  0.00000000E+000
       39  0.00000000E+000
       40  0.00000000E+000
       41  0.00000000E+000
       42  0.00000000E+000
       43  0.00000000E+000
       44  0.00000000E+000
       45  0.00000000E+000
       46  0.00000000E+000
       47  0.00000000E+000
       48  0.00000000E+000
       49  0.00000000E+000
       50  0.00000000E+000
       51  0.00000000E+000
       52  0.00000000E+000
       53  0.00000000E+000
       54  0.00000000E+000
       55  0.00000000E+000
       56  0.00000000E+000
       57  0.00000000E+000
       58  0.00000000E+000
       59  0.00000000E+000
       60  0.00000000E+000
       61  0.00000000E+000
       62  0.00000000E+000
       63  0.00000000E+000
       64  0.00000000E+000
       65  0.00000000E+000
       66  0.00000000E+000
       67  0.00000000E+000
       68  0.00000000E+000
       69  0.00000000E+000
       70  0.00000000E+000
       71  0.00000000E+000
       72  0.00000000E+000
       73  0.00000000E+000
       74  0.00000000E+000
       75  0.00000000E+000
       76  0.00000000E+000
       77  0.00000000E+000
       78  0.00000000E+000
       79  0.00000000E+000
       80  0.00000000E+000
       81  0.00000000E+000
       82  0.00000000E+000
       83  0.00000000E+000
       84  0.00000000E+000
       85  0.00000000E+000
       86  0.00000000E+000
       87  0.00000000E+000
       88  0.00000000E+000
       89  0.00000000E+000
       90  0.00000000E+000
       91  0.00000000E+000
       92  0.00000000E+000
       93  0.00000000E+000
       94  0.00000000E+000
       95  0.00000000E+000
       96  0.00000000E+000
       97  0.00000000E+000
       98  0.00000000E+000
       99  0.00000000E+000
      100  0.00000000E+000
      101  0.00000000E+000
      102  0.00000000E+000
      103  0.00000000E+000
      104  0.00000000E+000
      105  0.00000000E+000
      106  0.00000000E+000
      107  0.00000000E+000
      108  0.00000000E+000
      109  0.00000000E+000
      110  0.00000000E+000
      111  0.00000000E+000
      112  0.00000000E+000
      113  0.00000000E+000
      114  0.00000000E+000
      115  0.00000000E+000
      116  0.00000000E+000
      117  0.00000000E+000
      118  0.00000000E+000
      119  0.00000000E+000
      120  0.00000000E+000
      121  0.00000000E+000
End values
Result VELOC ALYA  0.16747831E+02 Vector OnNodes
ComponentNames VELOC_X,VELOC_Y,VELOC_Z
Values
        1  0.00000000E+000  0.00000000E+000
        2  0.00000000E+000  0.00000000E+000
        3  0.00000000E+000  0.00000000E+000
        4 -0.67631696E-002  0.87346645E-002
        5  0.00000000E+000  0.00000000E+000
        6  0.00000000E+000  0.00000000E+000
        7 -0.21856071E-001  0.11486587E-001
        8 -0.14290294E-001  0.28585436E-001
        9 -0.42572443E-001  0.36498036E-001
       10  0.00000000E+000  0.00000000E+000
       11  0.00000000E+000  0.00000000E+000
       12 -0.38139392E-001  0.90059943E-002
       13 -0.20041722E-001  0.59668898E-001
       14 -0.72204132E-001  0.29638323E-001
       15 -0.59044110E-001  0.74278806E-001
       16  0.00000000E+000  0.00000000E+000
       17  0.00000000E+000  0.00000000E+000
       18 -0.49757941E-001  0.37271989E-002
       19 -0.22998166E-001  0.99285658E-001
       20 -0.10021006E+000  0.62279906E-001
       21 -0.94239315E-001  0.13955063E-001
       22 -0.67614273E-001  0.12173358E+000
       23  0.00000000E+000  0.00000000E+000
       24  0.00000000E+000  0.00000000E+000
       25 -0.13402772E+000  0.33328387E-001
       26 -0.11533148E+000  0.10562424E+000
       27 -0.53044053E-001 -0.30065450E-002
       28 -0.22394763E-001  0.14212698E+000
       29 -0.10213580E+000 -0.66467785E-002
       30 -0.64481989E-001  0.17147753E+000
       31 -0.15866300E+000  0.65120382E-001
       32 -0.15166314E+000 -0.72179740E-002
       33 -0.10874423E+000  0.15255245E+000
       34  0.00000000E+000  0.00000000E+000
       35  0.00000000E+000  0.00000000E+000
       36 -0.46761019E-001 -0.96773076E-002
       37 -0.19481048E-001  0.18029499E+000
       38 -0.92772945E-001 -0.27354486E-001
       39 -0.49405925E-001  0.21175071E+000
       40 -0.19049592E+000  0.29946102E-002
       41 -0.15138780E+000  0.10589535E+000
       42 -0.14540371E+000 -0.50424824E-001
       43 -0.76984259E-001  0.18963511E+000
       44  0.00000000E+000  0.00000000E+000
       45  0.00000000E+000  0.00000000E+000
       46 -0.32639050E-001 -0.14179600E-001
       47 -0.18284152E-001  0.20422195E+000
       48 -0.19138017E+000  0.30458654E-001
       49 -0.19803146E+000 -0.71066491E-001
       50 -0.10339981E+000  0.14172183E+000
       51 -0.68126773E-001 -0.41911275E-001
       52 -0.27777546E-001  0.22791084E+000
       53 -0.11367437E+000 -0.83269744E-001
       54 -0.25955319E-001  0.20025092E+000
       55 -0.22094755E+000 -0.74223245E-001
       56 -0.13357546E+000  0.67013132E-001
       57  0.00000000E+000  0.00000000E+000
       58  0.00000000E+000  0.00000000E+000
       59 -0.15424290E-001 -0.14548443E-001
       60 -0.16942220E+000 -0.13498573E+000
       61 -0.17207455E-001  0.19988435E+000
       62 -0.21082097E-001  0.15392587E+000
       63 -0.35672901E-001 -0.44211686E-001
       64  0.30669023E-002  0.20229821E+000
       65 -0.17290103E+000 -0.46344938E-001
       66 -0.64662960E-001 -0.92102107E-001
       67  0.45728910E-001  0.16705021E+000
       68 -0.21533313E+000 -0.18318721E+000
       69 -0.23325583E-001  0.89615419E-001
       70 -0.10668439E+000 -0.16130761E+000
       71  0.93085429E-001  0.12563556E+000
       72  0.00000000E+000  0.00000000E+000
       73  0.00000000E+000  0.00000000E+000
       74 -0.19791405E-002 -0.10051227E-001
       75  0.42328729E-001  0.12457235E+000
       76 -0.75445044E-002 -0.30961251E-001
       77 -0.20899299E+000 -0.19962371E+000
       78 -0.43682129E-001 -0.15720844E-002
       79  0.13303452E+000  0.10530805E+000
       80 -0.15528465E+000 -0.24733931E+000
       81  0.13052761E+000  0.78983517E-001
       82 -0.16575435E-001 -0.67670900E-001
       83  0.23055851E+000  0.73585357E-001
       84 -0.32127959E-001 -0.12731047E+000
       85  0.32040835E+000  0.52730715E-001
       86 -0.10296497E+000 -0.15429797E+000
       87  0.00000000E+000  0.00000000E+000
       88  0.00000000E+000  0.00000000E+000
       89 -0.18679181E+000 -0.32810378E+000
       90  0.14451986E+000  0.21844162E-001
       91  0.00000000E+000  0.00000000E+000
       92  0.10000000E+001  0.00000000E+000
       93  0.10000000E+001  0.00000000E+000
       94  0.00000000E+000  0.00000000E+000
       95 -0.55166958E-001 -0.21619577E+000
       96  0.38862943E+000  0.34736726E-001
       97  0.00000000E+000  0.00000000E+000
       98  0.10000000E+001  0.00000000E+000
       99 -0.16076615E+000 -0.35909637E+000
      100  0.11932862E+000 -0.58917816E-001
      101  0.00000000E+000  0.00000000E+000
      102  0.10000000E+001  0.00000000E+000
      103 -0.80303511E-001 -0.33121622E+000
      104  0.42798383E+000  0.14717908E-001
      105  0.00000000E+000  0.00000000E+000
      106  0.10000000E+001  0.00000000E+000
      107 -0.14788761E-001 -0.28140016E+000
      108 -0.93304127E-001 -0.45031725E+000
      109  0.43342414E+000 -0.12158414E-001
      110  0.10000000E+001  0.00000000E+000
      111  0.00000000E+000  0.00000000E+000
      112 -0.63656211E-001 -0.52560148E+000
      113  0.39645401E+000 -0.59880250E-001
      114  0.00000000E+000  0.00000000E+000
      115  0.10000000E+001  0.00000000E+000
      116  0.94684424E-001 -0.47441468E+000
      117  0.10000000E+001  0.00000000E+000
      118  0.00000000E+000  0.00000000E+000
      119  0.10000000E+001  0.00000000E+000
      120  0.00000000E+000  0.00000000E+000
      121  0.00000000E+000  0.00000000E+000
End values
Result PRESS ALYA  0.16747831E+02 Scalar OnNodes
ComponentNames PRESS
Values
        1 -0.50260018E+000
        2 -0.50097195E+000
        3 -0.50366594E+000
        4 -0.50250181E+000
        5 -0.49954101E+000
        6 -0.50528938E+000
        7 -0.50446249E+000
        8 -0.50172185E+000
        9 -0.50423353E+000
       10 -0.50643582E+000
       11 -0.50028581E+000
       12 -0.50609870E+000
       13 -0.50307785E+000
       14 -0.50659329E+000
       15 -0.50642417E+000
       16 -0.50474226E+000
       17 -0.50683776E+000
       18 -0.50696064E+000
       19 -0.50816323E+000
       20 -0.50985572E+000
       21 -0.50821569E+000
       22 -0.51265171E+000
       23 -0.50630066E+000
       24 -0.51476987E+000
       25 -0.51255994E+000
       26 -0.51781838E+000
       27 -0.50689490E+000
       28 -0.51866325E+000
       29 -0.50864517E+000
       30 -0.52425046E+000
       31 -0.52247016E+000
       32 -0.51357120E+000
       33 -0.53151436E+000
       34 -0.50545024E+000
       35 -0.53286046E+000
       36 -0.50622316E+000
       37 -0.53647509E+000
       38 -0.50807348E+000
       39 -0.54122055E+000
       40 -0.52472516E+000
       41 -0.53922572E+000
       42 -0.51272815E+000
       43 -0.54916296E+000
       44 -0.50477249E+000
       45 -0.56421765E+000
       46 -0.50559888E+000
       47 -0.56440963E+000
       48 -0.54452448E+000
       49 -0.52355810E+000
       50 -0.55974764E+000
       51 -0.50729853E+000
       52 -0.56241341E+000
       53 -0.51112482E+000
       54 -0.56603501E+000
       55 -0.54382676E+000
       56 -0.56926239E+000
       57 -0.50488290E+000
       58 -0.62343948E+000
       59 -0.50562351E+000
       60 -0.51982040E+000
       61 -0.60971798E+000
       62 -0.57636047E+000
       63 -0.50714000E+000
       64 -0.58675226E+000
       65 -0.57144172E+000
       66 -0.51006488E+000
       67 -0.57676430E+000
       68 -0.53659016E+000
       69 -0.58850887E+000
       70 -0.51576778E+000
       71 -0.58160941E+000
       72 -0.75382372E+000
       73 -0.50564823E+000
       74 -0.50638478E+000
       75 -0.68711272E+000
       76 -0.50798458E+000
       77 -0.56088133E+000
       78 -0.59416601E+000
       79 -0.61580362E+000
       80 -0.52592655E+000
       81 -0.59278700E+000
       82 -0.51045059E+000
       83 -0.58046253E+000
       84 -0.51354561E+000
       85 -0.57615897E+000
       86 -0.58332215E+000
       87 -0.50651661E+000
       88 -0.91555218E+000
       89 -0.53897447E+000
       90 -0.59894182E+000
       91 -0.50739237E+000
       92 -0.84068181E+000
       93 -0.62920512E+000
       94 -0.50947212E+000
       95 -0.51613568E+000
       96 -0.58490380E+000
       97 -0.51246190E+000
       98 -0.56365605E+000
       99 -0.54703671E+000
      100 -0.58765556E+000
      101 -0.51566721E+000
      102 -0.55559018E+000
      103 -0.51211018E+000
      104 -0.58885359E+000
      105 -0.51675054E+000
      106 -0.56555043E+000
      107 -0.53722423E+000
      108 -0.48730716E+000
      109 -0.57008120E+000
      110 -0.57061501E+000
      111 -0.50793026E+000
      112 -0.42183852E+000
      113 -0.50187839E+000
      114 -0.47308951E+000
      115 -0.54973015E+000
      116 -0.31353346E+000
      117 -0.46894101E+000
      118 -0.38745895E+000
      119 -0.25414796E+000
      120 -0.22805911E+000
      121  0.00000000E+000
End values
Result VELOC ALYA  0.32917006E+02 Vector OnNodes
ComponentNames VELOC_X,VELOC_Y,VELOC_Z
Values
        1  0.00000000E+000  0.00000000E+000
        2  0.00000000E+000  0.00000000E+000
        3  0.00000000E+000  0.00000000E+000
        4 -0.10004950E-001  0.83151276E-002
        5  0.00000000E+000  0.00000000E+000
        6  0.00000000E+000  0.00000000E+000
        7 -0.28198537E-001  0.11824290E-001
        8 -0.18428867E-001  0.29343274E-001
        9 -0.51103512E-001  0.39076636E-001
       10  0.00000000E+000  0.00000000E+000
       11  0.00000000E+000  0.00000000E+000
       12 -0.47697534E-001  0.10306069E-001
       13 -0.24499722E-001  0.61622998E-001
       14 -0.85209711E-001  0.34299048E-001
       15 -0.67979456E-001  0.79529503E-001
       16  0.00000000E+000  0.00000000E+000
       17  0.00000000E+000  0.00000000E+000
       18 -0.62352303E-001  0.57502590E-002
       19 -0.27744268E-001  0.10173566E+000
       20 -0.11371239E+000  0.70809792E-001
       21 -0.11149198E+000  0.19802149E-001
       22 -0.76437600E-001  0.12889220E+000
       23  0.00000000E+000  0.00000000E+000
       24  0.00000000E+000  0.00000000E+000
       25 -0.15184650E+000  0.43603473E-001
       26 -0.12804026E+000  0.11722311E+000
       27 -0.67764230E-001 -0.80580107E-003
       28 -0.27788440E-001  0.14409126E+000
       29 -0.12250535E+000 -0.11560492E-002
       30 -0.73485128E-001  0.17907269E+000
       31 -0.17493072E+000  0.79244299E-001
       32 -0.17276465E+000  0.22698522E-002
       33 -0.12046701E+000  0.16541789E+000
       34  0.00000000E+000  0.00000000E+000
       35  0.00000000E+000  0.00000000E+000
       36 -0.61850743E-001 -0.78278881E-002
       37 -0.25834243E-001  0.18130100E+000
       38 -0.11395012E+000 -0.23648609E-001
       39 -0.59240629E-001  0.21828474E+000
       40 -0.20961058E+000  0.16426565E-001
       41 -0.16516150E+000  0.12206800E+000
       42 -0.16752613E+000 -0.44174410E-001
       43 -0.88143800E-001  0.20146326E+000
       44  0.00000000E+000  0.00000000E+000
       45  0.00000000E+000  0.00000000E+000
       46 -0.45866133E-001 -0.13021505E-001
       47 -0.25684599E-001  0.20515572E+000
       48 -0.20675332E+000  0.46662510E-001
       49 -0.21820817E+000 -0.61845880E-001
       50 -0.11419753E+000  0.15723496E+000
       51 -0.86965691E-001 -0.40699123E-001
       52 -0.39350176E-001  0.23280071E+000
       53 -0.13355983E+000 -0.81496847E-001
       54 -0.38057770E-001  0.20904356E+000
       55 -0.23707070E+000 -0.62471798E-001
       56 -0.14343894E+000  0.83414137E-001
       57  0.00000000E+000  0.00000000E+000
       58  0.00000000E+000  0.00000000E+000
       59 -0.24804725E-001 -0.14012993E-001
       60 -0.18749793E+000 -0.13204904E+000
       61 -0.24942955E-001  0.20273002E+000
       62 -0.30509655E-001  0.16565740E+000
       63 -0.49207986E-001 -0.45042119E-001
       64 -0.98660571E-002  0.20637119E+000
       65 -0.18209961E+000 -0.33592563E-001
       66 -0.79057124E-001 -0.94156293E-001
       67  0.32023605E-001  0.17222789E+000
       68 -0.22967618E+000 -0.17954322E+000
       69 -0.28101699E-001  0.10255995E+000
       70 -0.11945552E+000 -0.16414568E+000
       71  0.82679260E-001  0.13176092E+000
       72  0.00000000E+000  0.00000000E+000
       73  0.00000000E+000  0.00000000E+000
       74 -0.64425417E-002 -0.95695476E-002
       75  0.31822671E-001  0.12950723E+000
       76 -0.14088634E-001 -0.32061882E-001
       77 -0.21724907E+000 -0.19670605E+000
       78 -0.44386691E-001  0.91012865E-002
       79  0.11972780E+000  0.10911976E+000
       80 -0.16460090E+000 -0.25179955E+000
       81  0.12631923E+000  0.85266997E-001
       82 -0.23585207E-001 -0.70494659E-001
       83  0.21799869E+000  0.75212521E-001
       84 -0.38098719E-001 -0.13177047E+000
       85  0.31062099E+000  0.53834630E-001
       86 -0.10301777E+000 -0.15288502E+000
       87  0.00000000E+000  0.00000000E+000
       88  0.00000000E+000  0.00000000E+000
       89 -0.19140359E+000 -0.33649671E+000
       90  0.14697315E+000  0.26474877E-001
       91  0.00000000E+000  0.00000000E+000
       92  0.10000000E+001  0.00000000E+000
       93  0.10000000E+001  0.00000000E+000
       94  0.00000000E+000  0.00000000E+000
       95 -0.58493411E-001 -0.22305281E+000
       96  0.38262166E+000  0.35671745E-001
       97  0.00000000E+000  0.00000000E+000
       98  0.10000000E+001  0.00000000E+000
       99 -0.16147525E+000 -0.37319274E+000
      100  0.12484600E+000 -0.58929131E-001
      101  0.00000000E+000  0.00000000E+000
      102  0.10000000E+001  0.00000000E+000
      103 -0.80192116E-001 -0.34254070E+000
      104  0.42514388E+000  0.14936514E-001
      105  0.00000000E+000  0.00000000E+000
      106  0.10000000E+001  0.00000000E+000
      107 -0.17127995E-001 -0.29861409E+000
      108 -0.91607561E-001 -0.46801488E+000
      109  0.43124606E+000 -0.13479650E-001
      110  0.10000000E+001  0.00000000E+000
      111  0.00000000E+000  0.00000000E+000
      112 -0.67740282E-001 -0.54830881E+000
      113  0.38793514E+000 -0.68210957E-001
      114  0.00000000E+000  0.00000000E+000
      115  0.10000000E+001  0.00000000E+000
      116  0.74482764E-001 -0.49230139E+000
      117  0.10000000E+001  0.00000000E+000
      118  0.00000000E+000  0.00000000E+000
      119  0.10000000E+001  0.00000000E+000
      120  0.00000000E+000  0.00000000E+000
      121  0.00000000E+000  0.00000000E+000
End values
Result PRESS ALYA  0.32917006E+02 Scalar OnNodes
ComponentNames PRESS
Values
        1 -0.61674891E+000
        2 -0.61520196E+000
        3 -0.61755365E+000
        4 -0.61644473E+000
        5 -0.61412420E+000
        6 -0.61817615E+000
        7 -0.61724499E+000
        8 -0.61594199E+000
        9 -0.61710078E+000
       10 -0.61774876E+000
       11 -0.61554382E+000
       12 -0.61716861E+000
       13 -0.61795847E+000
       14 -0.61758312E+000
       15 -0.61976310E+000
       16 -0.62115325E+000
       17 -0.61606855E+000
       18 -0.61606523E+000
       19 -0.62417543E+000
       20 -0.62122308E+000
       21 -0.61720199E+000
       22 -0.62698811E+000
       23 -0.61338905E+000
       24 -0.63240741E+000
       25 -0.62188555E+000
       26 -0.63011778E+000
       27 -0.61389592E+000
       28 -0.63591444E+000
       29 -0.61555036E+000
       30 -0.63964429E+000
       31 -0.63288026E+000
       32 -0.62074202E+000
       33 -0.64477644E+000
       34 -0.61027116E+000
       35 -0.65089927E+000
       36 -0.61105337E+000
       37 -0.65422605E+000
       38 -0.61273791E+000
       39 -0.65698407E+000
       40 -0.63316840E+000
       41 -0.65092854E+000
       42 -0.61741822E+000
       43 -0.66251089E+000
       44 -0.60765421E+000
       45 -0.68116987E+000
       46 -0.60843347E+000
       47 -0.68151198E+000
       48 -0.65511007E+000
       49 -0.62927674E+000
       50 -0.67163395E+000
       51 -0.60970981E+000
       52 -0.67733599E+000
       53 -0.61309585E+000
       54 -0.67805848E+000
       55 -0.65242887E+000
       56 -0.68129213E+000
       57 -0.60633464E+000
       58 -0.74067841E+000
       59 -0.60693959E+000
       60 -0.62210867E+000
       61 -0.72675689E+000
       62 -0.68665120E+000
       63 -0.60783648E+000
       64 -0.70101475E+000
       65 -0.68391338E+000
       66 -0.60990751E+000
       67 -0.68759896E+000
       68 -0.64142748E+000
       69 -0.69943418E+000
       70 -0.61536219E+000
       71 -0.69031339E+000
       72 -0.89151748E+000
       73 -0.60637712E+000
       74 -0.60690562E+000
       75 -0.81139934E+000
       76 -0.60788307E+000
       77 -0.67117631E+000
       78 -0.70790445E+000
       79 -0.73231950E+000
       80 -0.62744579E+000
       81 -0.70188636E+000
       82 -0.60952330E+000
       83 -0.69157555E+000
       84 -0.61253269E+000
       85 -0.68407213E+000
       86 -0.69878050E+000
       87 -0.60711201E+000
       88 -0.10928537E+001
       89 -0.64631997E+000
       90 -0.71076823E+000
       91 -0.60784596E+000
       92 -0.97964904E+000
       93 -0.74623795E+000
       94 -0.60957784E+000
       95 -0.61706557E+000
       96 -0.69217627E+000
       97 -0.61236004E+000
       98 -0.67141364E+000
       99 -0.66159540E+000
      100 -0.70308306E+000
      101 -0.61642617E+000
      102 -0.65997019E+000
      103 -0.61888019E+000
      104 -0.69705304E+000
      105 -0.62066842E+000
      106 -0.66894405E+000
      107 -0.65217409E+000
      108 -0.60210150E+000
      109 -0.67894485E+000
      110 -0.67424230E+000
      111 -0.61837131E+000
      112 -0.53477439E+000
      113 -0.60778177E+000
      114 -0.59035368E+000
      115 -0.65269323E+000
      116 -0.39696100E+000
      117 -0.56271618E+000
      118 -0.49988728E+000
      119 -0.30321522E+000
      120 -0.30424909E+000
      121  0.00000000E+000
End values
